(footprint "SW_DIP_SPSTx06_Piano_CTS_Series194-6MSTN_W7.62mm_P2.54mm"
	(version 20240108)
	(generator "kicad-footprint-generator")
	(layer "F.Cu")
	(descr "6x-dip-switch SPST CTS_Series194-6MSTN, Piano, row spacing 7.62 mm (300 mils), body size  (see https://www.ctscorp.com/wp-content/uploads/194-195.pdf)")
	(tags "DIP Switch SPST Piano 7.62mm 300mil")
	(property "Reference" "REF**"
		(at 3.81 -3.42 0)
		(layer "F.SilkS")
		(effects
			(font
				(size 1 1)
				(thickness 0.15)
			)
		)
	)
	(property "Value" "SW_DIP_SPSTx06_Piano_CTS_Series194-6MSTN_W7.62mm_P2.54mm"
		(at 3.81 16.12 0)
		(layer "F.Fab")
		(effects
			(font
				(size 1 1)
				(thickness 0.15)
			)
		)
	)
	(attr through_hole)
	(fp_line
		(start -2.34 -0.82)
		(end -2.34 0.82)
		(stroke
			(width 0.12)
			(type solid)
		)
		(layer "F.SilkS")
	)
	(fp_line
		(start -2.34 -0.82)
		(end -1.14 -0.82)
		(stroke
			(width 0.12)
			(type solid)
		)
		(layer "F.SilkS")
	)
	(fp_line
		(start -2.34 0.82)
		(end -1.14 0.82)
		(stroke
			(width 0.12)
			(type solid)
		)
		(layer "F.SilkS")
	)
	(fp_line
		(start -2.34 1.72)
		(end -2.34 3.36)
		(stroke
			(width 0.12)
			(type solid)
		)
		(layer "F.SilkS")
	)
	(fp_line
		(start -2.34 1.72)
		(end -1.14 1.72)
		(stroke
			(width 0.12)
			(type solid)
		)
		(layer "F.SilkS")
	)
	(fp_line
		(start -2.34 3.36)
		(end -1.14 3.36)
		(stroke
			(width 0.12)
			(type solid)
		)
		(layer "F.SilkS")
	)
	(fp_line
		(start -2.34 4.26)
		(end -2.34 5.9)
		(stroke
			(width 0.12)
			(type solid)
		)
		(layer "F.SilkS")
	)
	(fp_line
		(start -2.34 4.26)
		(end -1.14 4.26)
		(stroke
			(width 0.12)
			(type solid)
		)
		(layer "F.SilkS")
	)
	(fp_line
		(start -2.34 5.9)
		(end -1.14 5.9)
		(stroke
			(width 0.12)
			(type solid)
		)
		(layer "F.SilkS")
	)
	(fp_line
		(start -2.34 6.8)
		(end -2.34 8.44)
		(stroke
			(width 0.12)
			(type solid)
		)
		(layer "F.SilkS")
	)
	(fp_line
		(start -2.34 6.8)
		(end -1.14 6.8)
		(stroke
			(width 0.12)
			(type solid)
		)
		(layer "F.SilkS")
	)
	(fp_line
		(start -2.34 8.44)
		(end -1.14 8.44)
		(stroke
			(width 0.12)
			(type solid)
		)
		(layer "F.SilkS")
	)
	(fp_line
		(start -2.34 9.34)
		(end -2.34 10.98)
		(stroke
			(width 0.12)
			(type solid)
		)
		(layer "F.SilkS")
	)
	(fp_line
		(start -2.34 9.34)
		(end -1.14 9.34)
		(stroke
			(width 0.12)
			(type solid)
		)
		(layer "F.SilkS")
	)
	(fp_line
		(start -2.34 10.98)
		(end -1.14 10.98)
		(stroke
			(width 0.12)
			(type solid)
		)
		(layer "F.SilkS")
	)
	(fp_line
		(start -2.34 11.88)
		(end -2.34 13.52)
		(stroke
			(width 0.12)
			(type solid)
		)
		(layer "F.SilkS")
	)
	(fp_line
		(start -2.34 11.88)
		(end -1.14 11.88)
		(stroke
			(width 0.12)
			(type solid)
		)
		(layer "F.SilkS")
	)
	(fp_line
		(start -2.34 13.52)
		(end -1.14 13.52)
		(stroke
			(width 0.12)
			(type solid)
		)
		(layer "F.SilkS")
	)
	(fp_line
		(start -1.38 -2.66)
		(end -1.38 -1.277)
		(stroke
			(width 0.12)
			(type solid)
		)
		(layer "F.SilkS")
	)
	(fp_line
		(start -1.38 -2.66)
		(end 0.003 -2.66)
		(stroke
			(width 0.12)
			(type solid)
		)
		(layer "F.SilkS")
	)
	(fp_line
		(start -1.14 -2.42)
		(end -1.14 15.12)
		(stroke
			(width 0.12)
			(type solid)
		)
		(layer "F.SilkS")
	)
	(fp_line
		(start -1.14 -2.42)
		(end 8.76 -2.42)
		(stroke
			(width 0.12)
			(type solid)
		)
		(layer "F.SilkS")
	)
	(fp_line
		(start -1.14 -0.82)
		(end -1.14 0.82)
		(stroke
			(width 0.12)
			(type solid)
		)
		(layer "F.SilkS")
	)
	(fp_line
		(start -1.14 1.72)
		(end -1.14 3.36)
		(stroke
			(width 0.12)
			(type solid)
		)
		(layer "F.SilkS")
	)
	(fp_line
		(start -1.14 4.26)
		(end -1.14 5.9)
		(stroke
			(width 0.12)
			(type solid)
		)
		(layer "F.SilkS")
	)
	(fp_line
		(start -1.14 6.8)
		(end -1.14 8.44)
		(stroke
			(width 0.12)
			(type solid)
		)
		(layer "F.SilkS")
	)
	(fp_line
		(start -1.14 9.34)
		(end -1.14 10.98)
		(stroke
			(width 0.12)
			(type solid)
		)
		(layer "F.SilkS")
	)
	(fp_line
		(start -1.14 11.88)
		(end -1.14 13.52)
		(stroke
			(width 0.12)
			(type solid)
		)
		(layer "F.SilkS")
	)
	(fp_line
		(start -1.14 15.12)
		(end 8.76 15.12)
		(stroke
			(width 0.12)
			(type solid)
		)
		(layer "F.SilkS")
	)
	(fp_line
		(start 8.76 -2.42)
		(end 8.76 15.12)
		(stroke
			(width 0.12)
			(type solid)
		)
		(layer "F.SilkS")
	)
	(fp_rect
		(start -2.47 -2.67)
		(end 8.95 15.37)
		(stroke
			(width 0.05)
			(type solid)
		)
		(fill none)
		(layer "F.CrtYd")
	)
	(fp_line
		(start -1.08 -1.36)
		(end -0.08 -2.36)
		(stroke
			(width 0.1)
			(type solid)
		)
		(layer "F.Fab")
	)
	(fp_line
		(start -1.08 15.06)
		(end -1.08 -1.36)
		(stroke
			(width 0.1)
			(type solid)
		)
		(layer "F.Fab")
	)
	(fp_line
		(start -0.08 -2.36)
		(end 8.7 -2.36)
		(stroke
			(width 0.1)
			(type solid)
		)
		(layer "F.Fab")
	)
	(fp_line
		(start 8.7 -2.36)
		(end 8.7 15.06)
		(stroke
			(width 0.1)
			(type solid)
		)
		(layer "F.Fab")
	)
	(fp_line
		(start 8.7 15.06)
		(end -1.08 15.06)
		(stroke
			(width 0.1)
			(type solid)
		)
		(layer "F.Fab")
	)
	(fp_rect
		(start -1.08 -0.76)
		(end -2.22 0.76)
		(stroke
			(width 0.1)
			(type solid)
		)
		(fill none)
		(layer "F.Fab")
	)
	(fp_rect
		(start -1.08 1.78)
		(end -2.22 3.3)
		(stroke
			(width 0.1)
			(type solid)
		)
		(fill none)
		(layer "F.Fab")
	)
	(fp_rect
		(start -1.08 4.32)
		(end -2.22 5.84)
		(stroke
			(width 0.1)
			(type solid)
		)
		(fill none)
		(layer "F.Fab")
	)
	(fp_rect
		(start -1.08 6.86)
		(end -2.22 8.38)
		(stroke
			(width 0.1)
			(type solid)
		)
		(fill none)
		(layer "F.Fab")
	)
	(fp_rect
		(start -1.08 9.4)
		(end -2.22 10.92)
		(stroke
			(width 0.1)
			(type solid)
		)
		(fill none)
		(layer "F.Fab")
	)
	(fp_rect
		(start -1.08 11.94)
		(end -2.22 13.46)
		(stroke
			(width 0.1)
			(type solid)
		)
		(fill none)
		(layer "F.Fab")
	)
	(fp_text user "${REFERENCE}"
		(at 3.81 6.35 0)
		(layer "F.Fab")
		(effects
			(font
				(size 0.8 0.8)
				(thickness 0.12)
			)
		)
	)
	(pad "1" thru_hole roundrect
		(at 0 0)
		(size 1.6 1.6)
		(drill 0.8)
		(layers "*.Cu" "*.Mask")
		(remove_unused_layers no)
		(roundrect_rratio 0.15625)
	)
	(pad "2" thru_hole circle
		(at 0 2.54)
		(size 1.6 1.6)
		(drill 0.8)
		(layers "*.Cu" "*.Mask")
		(remove_unused_layers no)
	)
	(pad "3" thru_hole circle
		(at 0 5.08)
		(size 1.6 1.6)
		(drill 0.8)
		(layers "*.Cu" "*.Mask")
		(remove_unused_layers no)
	)
	(pad "4" thru_hole circle
		(at 0 7.62)
		(size 1.6 1.6)
		(drill 0.8)
		(layers "*.Cu" "*.Mask")
		(remove_unused_layers no)
	)
	(pad "5" thru_hole circle
		(at 0 10.16)
		(size 1.6 1.6)
		(drill 0.8)
		(layers "*.Cu" "*.Mask")
		(remove_unused_layers no)
	)
	(pad "6" thru_hole circle
		(at 0 12.7)
		(size 1.6 1.6)
		(drill 0.8)
		(layers "*.Cu" "*.Mask")
		(remove_unused_layers no)
	)
	(pad "7" thru_hole circle
		(at 7.62 12.7)
		(size 1.6 1.6)
		(drill 0.8)
		(layers "*.Cu" "*.Mask")
		(remove_unused_layers no)
	)
	(pad "8" thru_hole circle
		(at 7.62 10.16)
		(size 1.6 1.6)
		(drill 0.8)
		(layers "*.Cu" "*.Mask")
		(remove_unused_layers no)
	)
	(pad "9" thru_hole circle
		(at 7.62 7.62)
		(size 1.6 1.6)
		(drill 0.8)
		(layers "*.Cu" "*.Mask")
		(remove_unused_layers no)
	)
	(pad "10" thru_hole circle
		(at 7.62 5.08)
		(size 1.6 1.6)
		(drill 0.8)
		(layers "*.Cu" "*.Mask")
		(remove_unused_layers no)
	)
	(pad "11" thru_hole circle
		(at 7.62 2.54)
		(size 1.6 1.6)
		(drill 0.8)
		(layers "*.Cu" "*.Mask")
		(remove_unused_layers no)
	)
	(pad "12" thru_hole circle
		(at 7.62 0)
		(size 1.6 1.6)
		(drill 0.8)
		(layers "*.Cu" "*.Mask")
		(remove_unused_layers no)
	)
	(model "${KICAD8_3DMODEL_DIR}/Button_Switch_THT.3dshapes/SW_DIP_SPSTx06_Piano_CTS_Series194-6MSTN_W7.62mm_P2.54mm.wrl"
		(offset
			(xyz 0 0 0)
		)
		(scale
			(xyz 1 1 1)
		)
		(rotate
			(xyz 0 0 90)
		)
	)
)
