(footprint "SW_DIP_SPSTx10_Slide_Omron_A6S-1010x_W8.9mm_P2.54mm"
	(version 20240108)
	(generator "kicad-footprint-generator")
	(layer "F.Cu")
	(descr "SMD 10x-dip-switch SPST Omron_A6S-1010x, Slide, row spacing 8.9 mm (350 mils), body size  (see http://omronfs.omron.com/en_US/ecb/products/pdf/en-a6s.pdf)")
	(tags "SMD DIP Switch SPST Slide 8.9mm 350mil")
	(property "Reference" "REF**"
		(at 0 -14.23 0)
		(layer "F.SilkS")
		(effects
			(font
				(size 1 1)
				(thickness 0.15)
			)
		)
	)
	(property "Value" "SW_DIP_SPSTx10_Slide_Omron_A6S-1010x_W8.9mm_P2.54mm"
		(at 0 14.23 0)
		(layer "F.Fab")
		(effects
			(font
				(size 1 1)
				(thickness 0.15)
			)
		)
	)
	(attr smd)
	(fp_line
		(start -5.2 -12.28)
		(end -3.16 -12.28)
		(stroke
			(width 0.12)
			(type solid)
		)
		(layer "F.SilkS")
	)
	(fp_line
		(start -3.16 -13.23)
		(end -3.16 -12.28)
		(stroke
			(width 0.12)
			(type solid)
		)
		(layer "F.SilkS")
	)
	(fp_line
		(start -3.16 -13.23)
		(end 3.16 -13.23)
		(stroke
			(width 0.12)
			(type solid)
		)
		(layer "F.SilkS")
	)
	(fp_line
		(start -3.16 13.23)
		(end -3.16 11.49)
		(stroke
			(width 0.12)
			(type solid)
		)
		(layer "F.SilkS")
	)
	(fp_line
		(start -3.16 13.23)
		(end 3.16 13.23)
		(stroke
			(width 0.12)
			(type solid)
		)
		(layer "F.SilkS")
	)
	(fp_line
		(start 3.16 -13.23)
		(end 3.16 -11.49)
		(stroke
			(width 0.12)
			(type solid)
		)
		(layer "F.SilkS")
	)
	(fp_line
		(start 3.16 13.23)
		(end 3.16 11.49)
		(stroke
			(width 0.12)
			(type solid)
		)
		(layer "F.SilkS")
	)
	(fp_rect
		(start -5.45 -13.48)
		(end 5.45 13.48)
		(stroke
			(width 0.05)
			(type solid)
		)
		(fill none)
		(layer "F.CrtYd")
	)
	(fp_line
		(start -3.1 -12.17)
		(end -2.1 -13.17)
		(stroke
			(width 0.1)
			(type solid)
		)
		(layer "F.Fab")
	)
	(fp_line
		(start -3.1 13.17)
		(end -3.1 -12.17)
		(stroke
			(width 0.1)
			(type solid)
		)
		(layer "F.Fab")
	)
	(fp_line
		(start -2.1 -13.17)
		(end 3.1 -13.17)
		(stroke
			(width 0.1)
			(type solid)
		)
		(layer "F.Fab")
	)
	(fp_line
		(start -0.5 -11.98)
		(end -0.5 -10.88)
		(stroke
			(width 0.1)
			(type solid)
		)
		(layer "F.Fab")
	)
	(fp_line
		(start -0.5 -9.44)
		(end -0.5 -8.34)
		(stroke
			(width 0.1)
			(type solid)
		)
		(layer "F.Fab")
	)
	(fp_line
		(start -0.5 -6.9)
		(end -0.5 -5.8)
		(stroke
			(width 0.1)
			(type solid)
		)
		(layer "F.Fab")
	)
	(fp_line
		(start -0.5 -4.36)
		(end -0.5 -3.26)
		(stroke
			(width 0.1)
			(type solid)
		)
		(layer "F.Fab")
	)
	(fp_line
		(start -0.5 -1.82)
		(end -0.5 -0.72)
		(stroke
			(width 0.1)
			(type solid)
		)
		(layer "F.Fab")
	)
	(fp_line
		(start -0.5 0.72)
		(end -0.5 1.82)
		(stroke
			(width 0.1)
			(type solid)
		)
		(layer "F.Fab")
	)
	(fp_line
		(start -0.5 3.26)
		(end -0.5 4.36)
		(stroke
			(width 0.1)
			(type solid)
		)
		(layer "F.Fab")
	)
	(fp_line
		(start -0.5 5.8)
		(end -0.5 6.9)
		(stroke
			(width 0.1)
			(type solid)
		)
		(layer "F.Fab")
	)
	(fp_line
		(start -0.5 8.34)
		(end -0.5 9.44)
		(stroke
			(width 0.1)
			(type solid)
		)
		(layer "F.Fab")
	)
	(fp_line
		(start -0.5 10.88)
		(end -0.5 11.98)
		(stroke
			(width 0.1)
			(type solid)
		)
		(layer "F.Fab")
	)
	(fp_line
		(start 3.1 -13.17)
		(end 3.1 13.17)
		(stroke
			(width 0.1)
			(type solid)
		)
		(layer "F.Fab")
	)
	(fp_line
		(start 3.1 13.17)
		(end -3.1 13.17)
		(stroke
			(width 0.1)
			(type solid)
		)
		(layer "F.Fab")
	)
	(fp_rect
		(start -1.5 -11.98)
		(end -0.5 -10.88)
		(stroke
			(width 0.1)
			(type solid)
		)
		(fill solid)
		(layer "F.Fab")
	)
	(fp_rect
		(start -1.5 -11.98)
		(end 1.5 -10.88)
		(stroke
			(width 0.1)
			(type solid)
		)
		(fill none)
		(layer "F.Fab")
	)
	(fp_rect
		(start -1.5 -9.44)
		(end -0.5 -8.34)
		(stroke
			(width 0.1)
			(type solid)
		)
		(fill solid)
		(layer "F.Fab")
	)
	(fp_rect
		(start -1.5 -9.44)
		(end 1.5 -8.34)
		(stroke
			(width 0.1)
			(type solid)
		)
		(fill none)
		(layer "F.Fab")
	)
	(fp_rect
		(start -1.5 -6.9)
		(end -0.5 -5.8)
		(stroke
			(width 0.1)
			(type solid)
		)
		(fill solid)
		(layer "F.Fab")
	)
	(fp_rect
		(start -1.5 -6.9)
		(end 1.5 -5.8)
		(stroke
			(width 0.1)
			(type solid)
		)
		(fill none)
		(layer "F.Fab")
	)
	(fp_rect
		(start -1.5 -4.36)
		(end -0.5 -3.26)
		(stroke
			(width 0.1)
			(type solid)
		)
		(fill solid)
		(layer "F.Fab")
	)
	(fp_rect
		(start -1.5 -4.36)
		(end 1.5 -3.26)
		(stroke
			(width 0.1)
			(type solid)
		)
		(fill none)
		(layer "F.Fab")
	)
	(fp_rect
		(start -1.5 -1.82)
		(end -0.5 -0.72)
		(stroke
			(width 0.1)
			(type solid)
		)
		(fill solid)
		(layer "F.Fab")
	)
	(fp_rect
		(start -1.5 -1.82)
		(end 1.5 -0.72)
		(stroke
			(width 0.1)
			(type solid)
		)
		(fill none)
		(layer "F.Fab")
	)
	(fp_rect
		(start -1.5 0.72)
		(end -0.5 1.82)
		(stroke
			(width 0.1)
			(type solid)
		)
		(fill solid)
		(layer "F.Fab")
	)
	(fp_rect
		(start -1.5 0.72)
		(end 1.5 1.82)
		(stroke
			(width 0.1)
			(type solid)
		)
		(fill none)
		(layer "F.Fab")
	)
	(fp_rect
		(start -1.5 3.26)
		(end -0.5 4.36)
		(stroke
			(width 0.1)
			(type solid)
		)
		(fill solid)
		(layer "F.Fab")
	)
	(fp_rect
		(start -1.5 3.26)
		(end 1.5 4.36)
		(stroke
			(width 0.1)
			(type solid)
		)
		(fill none)
		(layer "F.Fab")
	)
	(fp_rect
		(start -1.5 5.8)
		(end -0.5 6.9)
		(stroke
			(width 0.1)
			(type solid)
		)
		(fill solid)
		(layer "F.Fab")
	)
	(fp_rect
		(start -1.5 5.8)
		(end 1.5 6.9)
		(stroke
			(width 0.1)
			(type solid)
		)
		(fill none)
		(layer "F.Fab")
	)
	(fp_rect
		(start -1.5 8.34)
		(end -0.5 9.44)
		(stroke
			(width 0.1)
			(type solid)
		)
		(fill solid)
		(layer "F.Fab")
	)
	(fp_rect
		(start -1.5 8.34)
		(end 1.5 9.44)
		(stroke
			(width 0.1)
			(type solid)
		)
		(fill none)
		(layer "F.Fab")
	)
	(fp_rect
		(start -1.5 10.88)
		(end -0.5 11.98)
		(stroke
			(width 0.1)
			(type solid)
		)
		(fill solid)
		(layer "F.Fab")
	)
	(fp_rect
		(start -1.5 10.88)
		(end 1.5 11.98)
		(stroke
			(width 0.1)
			(type solid)
		)
		(fill none)
		(layer "F.Fab")
	)
	(fp_text user "${REFERENCE}"
		(at 2.3 0 90)
		(layer "F.Fab")
		(effects
			(font
				(size 0.8 0.8)
				(thickness 0.12)
			)
		)
	)
	(fp_text user "on"
		(at 0.075 -12.575 0)
		(layer "F.Fab")
		(effects
			(font
				(size 0.8 0.8)
				(thickness 0.12)
			)
		)
	)
	(pad "1" smd roundrect
		(at -4.45 -11.43)
		(size 1.5 1.1)
		(layers "F.Cu" "F.Paste" "F.Mask")
		(roundrect_rratio 0.227273)
	)
	(pad "2" smd roundrect
		(at -4.45 -8.89)
		(size 1.5 1.1)
		(layers "F.Cu" "F.Paste" "F.Mask")
		(roundrect_rratio 0.227273)
	)
	(pad "3" smd roundrect
		(at -4.45 -6.35)
		(size 1.5 1.1)
		(layers "F.Cu" "F.Paste" "F.Mask")
		(roundrect_rratio 0.227273)
	)
	(pad "4" smd roundrect
		(at -4.45 -3.81)
		(size 1.5 1.1)
		(layers "F.Cu" "F.Paste" "F.Mask")
		(roundrect_rratio 0.227273)
	)
	(pad "5" smd roundrect
		(at -4.45 -1.27)
		(size 1.5 1.1)
		(layers "F.Cu" "F.Paste" "F.Mask")
		(roundrect_rratio 0.227273)
	)
	(pad "6" smd roundrect
		(at -4.45 1.27)
		(size 1.5 1.1)
		(layers "F.Cu" "F.Paste" "F.Mask")
		(roundrect_rratio 0.227273)
	)
	(pad "7" smd roundrect
		(at -4.45 3.81)
		(size 1.5 1.1)
		(layers "F.Cu" "F.Paste" "F.Mask")
		(roundrect_rratio 0.227273)
	)
	(pad "8" smd roundrect
		(at -4.45 6.35)
		(size 1.5 1.1)
		(layers "F.Cu" "F.Paste" "F.Mask")
		(roundrect_rratio 0.227273)
	)
	(pad "9" smd roundrect
		(at -4.45 8.89)
		(size 1.5 1.1)
		(layers "F.Cu" "F.Paste" "F.Mask")
		(roundrect_rratio 0.227273)
	)
	(pad "10" smd roundrect
		(at -4.45 11.43)
		(size 1.5 1.1)
		(layers "F.Cu" "F.Paste" "F.Mask")
		(roundrect_rratio 0.227273)
	)
	(pad "11" smd roundrect
		(at 4.45 11.43)
		(size 1.5 1.1)
		(layers "F.Cu" "F.Paste" "F.Mask")
		(roundrect_rratio 0.227273)
	)
	(pad "12" smd roundrect
		(at 4.45 8.89)
		(size 1.5 1.1)
		(layers "F.Cu" "F.Paste" "F.Mask")
		(roundrect_rratio 0.227273)
	)
	(pad "13" smd roundrect
		(at 4.45 6.35)
		(size 1.5 1.1)
		(layers "F.Cu" "F.Paste" "F.Mask")
		(roundrect_rratio 0.227273)
	)
	(pad "14" smd roundrect
		(at 4.45 3.81)
		(size 1.5 1.1)
		(layers "F.Cu" "F.Paste" "F.Mask")
		(roundrect_rratio 0.227273)
	)
	(pad "15" smd roundrect
		(at 4.45 1.27)
		(size 1.5 1.1)
		(layers "F.Cu" "F.Paste" "F.Mask")
		(roundrect_rratio 0.227273)
	)
	(pad "16" smd roundrect
		(at 4.45 -1.27)
		(size 1.5 1.1)
		(layers "F.Cu" "F.Paste" "F.Mask")
		(roundrect_rratio 0.227273)
	)
	(pad "17" smd roundrect
		(at 4.45 -3.81)
		(size 1.5 1.1)
		(layers "F.Cu" "F.Paste" "F.Mask")
		(roundrect_rratio 0.227273)
	)
	(pad "18" smd roundrect
		(at 4.45 -6.35)
		(size 1.5 1.1)
		(layers "F.Cu" "F.Paste" "F.Mask")
		(roundrect_rratio 0.227273)
	)
	(pad "19" smd roundrect
		(at 4.45 -8.89)
		(size 1.5 1.1)
		(layers "F.Cu" "F.Paste" "F.Mask")
		(roundrect_rratio 0.227273)
	)
	(pad "20" smd roundrect
		(at 4.45 -11.43)
		(size 1.5 1.1)
		(layers "F.Cu" "F.Paste" "F.Mask")
		(roundrect_rratio 0.227273)
	)
	(model "${KICAD8_3DMODEL_DIR}/Button_Switch_SMD.3dshapes/SW_DIP_SPSTx10_Slide_Omron_A6S-1010x_W8.9mm_P2.54mm.wrl"
		(offset
			(xyz 0 0 0)
		)
		(scale
			(xyz 1 1 1)
		)
		(rotate
			(xyz 0 0 0)
		)
	)
)
