(footprint "SW_DIP_SPSTx01_Slide_Omron_A6S-110x_W8.9mm_P2.54mm"
	(version 20240108)
	(generator "kicad-footprint-generator")
	(layer "F.Cu")
	(descr "SMD 1x-dip-switch SPST Omron_A6S-110x, Slide, row spacing 8.9 mm (350 mils), body size  (see http://omronfs.omron.com/en_US/ecb/products/pdf/en-a6s.pdf)")
	(tags "SMD DIP Switch SPST Slide 8.9mm 350mil")
	(property "Reference" "REF**"
		(at 0 -2.8 0)
		(layer "F.SilkS")
		(effects
			(font
				(size 1 1)
				(thickness 0.15)
			)
		)
	)
	(property "Value" "SW_DIP_SPSTx01_Slide_Omron_A6S-110x_W8.9mm_P2.54mm"
		(at 0 2.8 0)
		(layer "F.Fab")
		(effects
			(font
				(size 1 1)
				(thickness 0.15)
			)
		)
	)
	(attr smd)
	(fp_line
		(start -5.2 -0.85)
		(end -3.16 -0.85)
		(stroke
			(width 0.12)
			(type solid)
		)
		(layer "F.SilkS")
	)
	(fp_line
		(start -3.16 -1.8)
		(end -3.16 -0.85)
		(stroke
			(width 0.12)
			(type solid)
		)
		(layer "F.SilkS")
	)
	(fp_line
		(start -3.16 -1.8)
		(end 3.16 -1.8)
		(stroke
			(width 0.12)
			(type solid)
		)
		(layer "F.SilkS")
	)
	(fp_line
		(start -3.16 1.8)
		(end -3.16 0.06)
		(stroke
			(width 0.12)
			(type solid)
		)
		(layer "F.SilkS")
	)
	(fp_line
		(start -3.16 1.8)
		(end 3.16 1.8)
		(stroke
			(width 0.12)
			(type solid)
		)
		(layer "F.SilkS")
	)
	(fp_line
		(start 3.16 -1.8)
		(end 3.16 -0.06)
		(stroke
			(width 0.12)
			(type solid)
		)
		(layer "F.SilkS")
	)
	(fp_line
		(start 3.16 1.8)
		(end 3.16 0.06)
		(stroke
			(width 0.12)
			(type solid)
		)
		(layer "F.SilkS")
	)
	(fp_rect
		(start -5.45 -2.05)
		(end 5.45 2.05)
		(stroke
			(width 0.05)
			(type solid)
		)
		(fill none)
		(layer "F.CrtYd")
	)
	(fp_line
		(start -3.1 -0.74)
		(end -2.1 -1.74)
		(stroke
			(width 0.1)
			(type solid)
		)
		(layer "F.Fab")
	)
	(fp_line
		(start -3.1 1.74)
		(end -3.1 -0.74)
		(stroke
			(width 0.1)
			(type solid)
		)
		(layer "F.Fab")
	)
	(fp_line
		(start -2.1 -1.74)
		(end 3.1 -1.74)
		(stroke
			(width 0.1)
			(type solid)
		)
		(layer "F.Fab")
	)
	(fp_line
		(start -0.5 -0.55)
		(end -0.5 0.55)
		(stroke
			(width 0.1)
			(type solid)
		)
		(layer "F.Fab")
	)
	(fp_line
		(start 3.1 -1.74)
		(end 3.1 1.74)
		(stroke
			(width 0.1)
			(type solid)
		)
		(layer "F.Fab")
	)
	(fp_line
		(start 3.1 1.74)
		(end -3.1 1.74)
		(stroke
			(width 0.1)
			(type solid)
		)
		(layer "F.Fab")
	)
	(fp_rect
		(start -1.5 -0.55)
		(end -0.5 0.55)
		(stroke
			(width 0.1)
			(type solid)
		)
		(fill solid)
		(layer "F.Fab")
	)
	(fp_rect
		(start -1.5 -0.55)
		(end 1.5 0.55)
		(stroke
			(width 0.1)
			(type solid)
		)
		(fill none)
		(layer "F.Fab")
	)
	(fp_text user "${REFERENCE}"
		(at 2.3 0 90)
		(layer "F.Fab")
		(effects
			(font
				(size 0.6 0.6)
				(thickness 0.09)
			)
		)
	)
	(fp_text user "on"
		(at 0.075 -1.145 0)
		(layer "F.Fab")
		(effects
			(font
				(size 0.6 0.6)
				(thickness 0.09)
			)
		)
	)
	(pad "1" smd roundrect
		(at -4.45 0)
		(size 1.5 1.1)
		(layers "F.Cu" "F.Paste" "F.Mask")
		(roundrect_rratio 0.227273)
	)
	(pad "2" smd roundrect
		(at 4.45 0)
		(size 1.5 1.1)
		(layers "F.Cu" "F.Paste" "F.Mask")
		(roundrect_rratio 0.227273)
	)
	(model "${KICAD8_3DMODEL_DIR}/Button_Switch_SMD.3dshapes/SW_DIP_SPSTx01_Slide_Omron_A6S-110x_W8.9mm_P2.54mm.wrl"
		(offset
			(xyz 0 0 0)
		)
		(scale
			(xyz 1 1 1)
		)
		(rotate
			(xyz 0 0 0)
		)
	)
)
