(footprint "SW_DIP_SPSTx09_Slide_9.78x25.04mm_W8.61mm_P2.54mm"
	(version 20240108)
	(generator "kicad-footprint-generator")
	(layer "F.Cu")
	(descr "SMD 9x-dip-switch SPST , Slide, row spacing 8.61 mm (338 mils), body size 9.78x25.04mm (see e.g. https://www.ctscorp.com/wp-content/uploads/204.pdf), SMD")
	(tags "SMD DIP Switch SPST Slide 8.61mm 338mil SMD")
	(property "Reference" "REF**"
		(at 0 -13.58 0)
		(layer "F.SilkS")
		(effects
			(font
				(size 1 1)
				(thickness 0.15)
			)
		)
	)
	(property "Value" "SW_DIP_SPSTx09_Slide_9.78x25.04mm_W8.61mm_P2.54mm"
		(at 0 13.58 0)
		(layer "F.Fab")
		(effects
			(font
				(size 1 1)
				(thickness 0.15)
			)
		)
	)
	(attr smd)
	(fp_line
		(start -5.19 -12.82)
		(end -5.19 -11.437)
		(stroke
			(width 0.12)
			(type solid)
		)
		(layer "F.SilkS")
	)
	(fp_line
		(start -5.19 -12.82)
		(end -3.807 -12.82)
		(stroke
			(width 0.12)
			(type solid)
		)
		(layer "F.SilkS")
	)
	(fp_line
		(start -4.95 -12.58)
		(end -4.95 -10.96)
		(stroke
			(width 0.12)
			(type solid)
		)
		(layer "F.SilkS")
	)
	(fp_line
		(start -4.95 -12.58)
		(end 4.95 -12.58)
		(stroke
			(width 0.12)
			(type solid)
		)
		(layer "F.SilkS")
	)
	(fp_line
		(start -4.95 -9.36)
		(end -4.95 -8.42)
		(stroke
			(width 0.12)
			(type solid)
		)
		(layer "F.SilkS")
	)
	(fp_line
		(start -4.95 -6.82)
		(end -4.95 -5.88)
		(stroke
			(width 0.12)
			(type solid)
		)
		(layer "F.SilkS")
	)
	(fp_line
		(start -4.95 -4.28)
		(end -4.95 -3.34)
		(stroke
			(width 0.12)
			(type solid)
		)
		(layer "F.SilkS")
	)
	(fp_line
		(start -4.95 -1.74)
		(end -4.95 -0.8)
		(stroke
			(width 0.12)
			(type solid)
		)
		(layer "F.SilkS")
	)
	(fp_line
		(start -4.95 0.8)
		(end -4.95 1.74)
		(stroke
			(width 0.12)
			(type solid)
		)
		(layer "F.SilkS")
	)
	(fp_line
		(start -4.95 3.34)
		(end -4.95 4.28)
		(stroke
			(width 0.12)
			(type solid)
		)
		(layer "F.SilkS")
	)
	(fp_line
		(start -4.95 5.88)
		(end -4.95 6.82)
		(stroke
			(width 0.12)
			(type solid)
		)
		(layer "F.SilkS")
	)
	(fp_line
		(start -4.95 8.42)
		(end -4.95 9.36)
		(stroke
			(width 0.12)
			(type solid)
		)
		(layer "F.SilkS")
	)
	(fp_line
		(start -4.95 10.96)
		(end -4.95 12.58)
		(stroke
			(width 0.12)
			(type solid)
		)
		(layer "F.SilkS")
	)
	(fp_line
		(start -4.95 12.58)
		(end 4.95 12.58)
		(stroke
			(width 0.12)
			(type solid)
		)
		(layer "F.SilkS")
	)
	(fp_line
		(start -0.676667 -10.795)
		(end -0.676667 -9.525)
		(stroke
			(width 0.12)
			(type solid)
		)
		(layer "F.SilkS")
	)
	(fp_line
		(start -0.676667 -8.255)
		(end -0.676667 -6.985)
		(stroke
			(width 0.12)
			(type solid)
		)
		(layer "F.SilkS")
	)
	(fp_line
		(start -0.676667 -5.715)
		(end -0.676667 -4.445)
		(stroke
			(width 0.12)
			(type solid)
		)
		(layer "F.SilkS")
	)
	(fp_line
		(start -0.676667 -3.175)
		(end -0.676667 -1.905)
		(stroke
			(width 0.12)
			(type solid)
		)
		(layer "F.SilkS")
	)
	(fp_line
		(start -0.676667 -0.635)
		(end -0.676667 0.635)
		(stroke
			(width 0.12)
			(type solid)
		)
		(layer "F.SilkS")
	)
	(fp_line
		(start -0.676667 1.905)
		(end -0.676667 3.175)
		(stroke
			(width 0.12)
			(type solid)
		)
		(layer "F.SilkS")
	)
	(fp_line
		(start -0.676667 4.445)
		(end -0.676667 5.715)
		(stroke
			(width 0.12)
			(type solid)
		)
		(layer "F.SilkS")
	)
	(fp_line
		(start -0.676667 6.985)
		(end -0.676667 8.255)
		(stroke
			(width 0.12)
			(type solid)
		)
		(layer "F.SilkS")
	)
	(fp_line
		(start -0.676667 9.525)
		(end -0.676667 10.795)
		(stroke
			(width 0.12)
			(type solid)
		)
		(layer "F.SilkS")
	)
	(fp_line
		(start 4.95 -12.58)
		(end 4.95 -10.96)
		(stroke
			(width 0.12)
			(type solid)
		)
		(layer "F.SilkS")
	)
	(fp_line
		(start 4.95 -9.36)
		(end 4.95 -8.42)
		(stroke
			(width 0.12)
			(type solid)
		)
		(layer "F.SilkS")
	)
	(fp_line
		(start 4.95 -6.82)
		(end 4.95 -5.88)
		(stroke
			(width 0.12)
			(type solid)
		)
		(layer "F.SilkS")
	)
	(fp_line
		(start 4.95 -4.28)
		(end 4.95 -3.34)
		(stroke
			(width 0.12)
			(type solid)
		)
		(layer "F.SilkS")
	)
	(fp_line
		(start 4.95 -1.74)
		(end 4.95 -0.8)
		(stroke
			(width 0.12)
			(type solid)
		)
		(layer "F.SilkS")
	)
	(fp_line
		(start 4.95 0.8)
		(end 4.95 1.74)
		(stroke
			(width 0.12)
			(type solid)
		)
		(layer "F.SilkS")
	)
	(fp_line
		(start 4.95 3.34)
		(end 4.95 4.28)
		(stroke
			(width 0.12)
			(type solid)
		)
		(layer "F.SilkS")
	)
	(fp_line
		(start 4.95 5.88)
		(end 4.95 6.82)
		(stroke
			(width 0.12)
			(type solid)
		)
		(layer "F.SilkS")
	)
	(fp_line
		(start 4.95 8.42)
		(end 4.95 9.36)
		(stroke
			(width 0.12)
			(type solid)
		)
		(layer "F.SilkS")
	)
	(fp_line
		(start 4.95 10.96)
		(end 4.95 12.58)
		(stroke
			(width 0.12)
			(type solid)
		)
		(layer "F.SilkS")
	)
	(fp_rect
		(start -2.03 -10.795)
		(end -0.676667 -9.525)
		(stroke
			(width 0.12)
			(type solid)
		)
		(fill solid)
		(layer "F.SilkS")
	)
	(fp_rect
		(start -2.03 -10.795)
		(end 2.03 -9.525)
		(stroke
			(width 0.12)
			(type solid)
		)
		(fill none)
		(layer "F.SilkS")
	)
	(fp_rect
		(start -2.03 -8.255)
		(end -0.676667 -6.985)
		(stroke
			(width 0.12)
			(type solid)
		)
		(fill solid)
		(layer "F.SilkS")
	)
	(fp_rect
		(start -2.03 -8.255)
		(end 2.03 -6.985)
		(stroke
			(width 0.12)
			(type solid)
		)
		(fill none)
		(layer "F.SilkS")
	)
	(fp_rect
		(start -2.03 -5.715)
		(end -0.676667 -4.445)
		(stroke
			(width 0.12)
			(type solid)
		)
		(fill solid)
		(layer "F.SilkS")
	)
	(fp_rect
		(start -2.03 -5.715)
		(end 2.03 -4.445)
		(stroke
			(width 0.12)
			(type solid)
		)
		(fill none)
		(layer "F.SilkS")
	)
	(fp_rect
		(start -2.03 -3.175)
		(end -0.676667 -1.905)
		(stroke
			(width 0.12)
			(type solid)
		)
		(fill solid)
		(layer "F.SilkS")
	)
	(fp_rect
		(start -2.03 -3.175)
		(end 2.03 -1.905)
		(stroke
			(width 0.12)
			(type solid)
		)
		(fill none)
		(layer "F.SilkS")
	)
	(fp_rect
		(start -2.03 -0.635)
		(end -0.676667 0.635)
		(stroke
			(width 0.12)
			(type solid)
		)
		(fill solid)
		(layer "F.SilkS")
	)
	(fp_rect
		(start -2.03 -0.635)
		(end 2.03 0.635)
		(stroke
			(width 0.12)
			(type solid)
		)
		(fill none)
		(layer "F.SilkS")
	)
	(fp_rect
		(start -2.03 1.905)
		(end -0.676667 3.175)
		(stroke
			(width 0.12)
			(type solid)
		)
		(fill solid)
		(layer "F.SilkS")
	)
	(fp_rect
		(start -2.03 1.905)
		(end 2.03 3.175)
		(stroke
			(width 0.12)
			(type solid)
		)
		(fill none)
		(layer "F.SilkS")
	)
	(fp_rect
		(start -2.03 4.445)
		(end -0.676667 5.715)
		(stroke
			(width 0.12)
			(type solid)
		)
		(fill solid)
		(layer "F.SilkS")
	)
	(fp_rect
		(start -2.03 4.445)
		(end 2.03 5.715)
		(stroke
			(width 0.12)
			(type solid)
		)
		(fill none)
		(layer "F.SilkS")
	)
	(fp_rect
		(start -2.03 6.985)
		(end -0.676667 8.255)
		(stroke
			(width 0.12)
			(type solid)
		)
		(fill solid)
		(layer "F.SilkS")
	)
	(fp_rect
		(start -2.03 6.985)
		(end 2.03 8.255)
		(stroke
			(width 0.12)
			(type solid)
		)
		(fill none)
		(layer "F.SilkS")
	)
	(fp_rect
		(start -2.03 9.525)
		(end -0.676667 10.795)
		(stroke
			(width 0.12)
			(type solid)
		)
		(fill solid)
		(layer "F.SilkS")
	)
	(fp_rect
		(start -2.03 9.525)
		(end 2.03 10.795)
		(stroke
			(width 0.12)
			(type solid)
		)
		(fill none)
		(layer "F.SilkS")
	)
	(fp_rect
		(start -5.78 -12.83)
		(end 5.78 12.83)
		(stroke
			(width 0.05)
			(type solid)
		)
		(fill none)
		(layer "F.CrtYd")
	)
	(fp_line
		(start -4.89 -11.52)
		(end -3.89 -12.52)
		(stroke
			(width 0.1)
			(type solid)
		)
		(layer "F.Fab")
	)
	(fp_line
		(start -4.89 12.52)
		(end -4.89 -11.52)
		(stroke
			(width 0.1)
			(type solid)
		)
		(layer "F.Fab")
	)
	(fp_line
		(start -3.89 -12.52)
		(end 4.89 -12.52)
		(stroke
			(width 0.1)
			(type solid)
		)
		(layer "F.Fab")
	)
	(fp_line
		(start -0.676667 -10.795)
		(end -0.676667 -9.525)
		(stroke
			(width 0.1)
			(type solid)
		)
		(layer "F.Fab")
	)
	(fp_line
		(start -0.676667 -8.255)
		(end -0.676667 -6.985)
		(stroke
			(width 0.1)
			(type solid)
		)
		(layer "F.Fab")
	)
	(fp_line
		(start -0.676667 -5.715)
		(end -0.676667 -4.445)
		(stroke
			(width 0.1)
			(type solid)
		)
		(layer "F.Fab")
	)
	(fp_line
		(start -0.676667 -3.175)
		(end -0.676667 -1.905)
		(stroke
			(width 0.1)
			(type solid)
		)
		(layer "F.Fab")
	)
	(fp_line
		(start -0.676667 -0.635)
		(end -0.676667 0.635)
		(stroke
			(width 0.1)
			(type solid)
		)
		(layer "F.Fab")
	)
	(fp_line
		(start -0.676667 1.905)
		(end -0.676667 3.175)
		(stroke
			(width 0.1)
			(type solid)
		)
		(layer "F.Fab")
	)
	(fp_line
		(start -0.676667 4.445)
		(end -0.676667 5.715)
		(stroke
			(width 0.1)
			(type solid)
		)
		(layer "F.Fab")
	)
	(fp_line
		(start -0.676667 6.985)
		(end -0.676667 8.255)
		(stroke
			(width 0.1)
			(type solid)
		)
		(layer "F.Fab")
	)
	(fp_line
		(start -0.676667 9.525)
		(end -0.676667 10.795)
		(stroke
			(width 0.1)
			(type solid)
		)
		(layer "F.Fab")
	)
	(fp_line
		(start 4.89 -12.52)
		(end 4.89 12.52)
		(stroke
			(width 0.1)
			(type solid)
		)
		(layer "F.Fab")
	)
	(fp_line
		(start 4.89 12.52)
		(end -4.89 12.52)
		(stroke
			(width 0.1)
			(type solid)
		)
		(layer "F.Fab")
	)
	(fp_rect
		(start -2.03 -10.795)
		(end -0.676667 -9.525)
		(stroke
			(width 0.1)
			(type solid)
		)
		(fill solid)
		(layer "F.Fab")
	)
	(fp_rect
		(start -2.03 -10.795)
		(end 2.03 -9.525)
		(stroke
			(width 0.1)
			(type solid)
		)
		(fill none)
		(layer "F.Fab")
	)
	(fp_rect
		(start -2.03 -8.255)
		(end -0.676667 -6.985)
		(stroke
			(width 0.1)
			(type solid)
		)
		(fill solid)
		(layer "F.Fab")
	)
	(fp_rect
		(start -2.03 -8.255)
		(end 2.03 -6.985)
		(stroke
			(width 0.1)
			(type solid)
		)
		(fill none)
		(layer "F.Fab")
	)
	(fp_rect
		(start -2.03 -5.715)
		(end -0.676667 -4.445)
		(stroke
			(width 0.1)
			(type solid)
		)
		(fill solid)
		(layer "F.Fab")
	)
	(fp_rect
		(start -2.03 -5.715)
		(end 2.03 -4.445)
		(stroke
			(width 0.1)
			(type solid)
		)
		(fill none)
		(layer "F.Fab")
	)
	(fp_rect
		(start -2.03 -3.175)
		(end -0.676667 -1.905)
		(stroke
			(width 0.1)
			(type solid)
		)
		(fill solid)
		(layer "F.Fab")
	)
	(fp_rect
		(start -2.03 -3.175)
		(end 2.03 -1.905)
		(stroke
			(width 0.1)
			(type solid)
		)
		(fill none)
		(layer "F.Fab")
	)
	(fp_rect
		(start -2.03 -0.635)
		(end -0.676667 0.635)
		(stroke
			(width 0.1)
			(type solid)
		)
		(fill solid)
		(layer "F.Fab")
	)
	(fp_rect
		(start -2.03 -0.635)
		(end 2.03 0.635)
		(stroke
			(width 0.1)
			(type solid)
		)
		(fill none)
		(layer "F.Fab")
	)
	(fp_rect
		(start -2.03 1.905)
		(end -0.676667 3.175)
		(stroke
			(width 0.1)
			(type solid)
		)
		(fill solid)
		(layer "F.Fab")
	)
	(fp_rect
		(start -2.03 1.905)
		(end 2.03 3.175)
		(stroke
			(width 0.1)
			(type solid)
		)
		(fill none)
		(layer "F.Fab")
	)
	(fp_rect
		(start -2.03 4.445)
		(end -0.676667 5.715)
		(stroke
			(width 0.1)
			(type solid)
		)
		(fill solid)
		(layer "F.Fab")
	)
	(fp_rect
		(start -2.03 4.445)
		(end 2.03 5.715)
		(stroke
			(width 0.1)
			(type solid)
		)
		(fill none)
		(layer "F.Fab")
	)
	(fp_rect
		(start -2.03 6.985)
		(end -0.676667 8.255)
		(stroke
			(width 0.1)
			(type solid)
		)
		(fill solid)
		(layer "F.Fab")
	)
	(fp_rect
		(start -2.03 6.985)
		(end 2.03 8.255)
		(stroke
			(width 0.1)
			(type solid)
		)
		(fill none)
		(layer "F.Fab")
	)
	(fp_rect
		(start -2.03 9.525)
		(end -0.676667 10.795)
		(stroke
			(width 0.1)
			(type solid)
		)
		(fill solid)
		(layer "F.Fab")
	)
	(fp_rect
		(start -2.03 9.525)
		(end 2.03 10.795)
		(stroke
			(width 0.1)
			(type solid)
		)
		(fill none)
		(layer "F.Fab")
	)
	(fp_text user "${REFERENCE}"
		(at 3.46 0 90)
		(layer "F.Fab")
		(effects
			(font
				(size 0.8 0.8)
				(thickness 0.12)
			)
		)
	)
	(fp_text user "on"
		(at 1.3075 -11.6575 0)
		(layer "F.Fab")
		(effects
			(font
				(size 0.8 0.8)
				(thickness 0.12)
			)
		)
	)
	(pad "1" smd roundrect
		(at -4.305 -10.16)
		(size 2.44 1.12)
		(layers "F.Cu" "F.Paste" "F.Mask")
		(roundrect_rratio 0.223214)
	)
	(pad "2" smd roundrect
		(at -4.305 -7.62)
		(size 2.44 1.12)
		(layers "F.Cu" "F.Paste" "F.Mask")
		(roundrect_rratio 0.223214)
	)
	(pad "3" smd roundrect
		(at -4.305 -5.08)
		(size 2.44 1.12)
		(layers "F.Cu" "F.Paste" "F.Mask")
		(roundrect_rratio 0.223214)
	)
	(pad "4" smd roundrect
		(at -4.305 -2.54)
		(size 2.44 1.12)
		(layers "F.Cu" "F.Paste" "F.Mask")
		(roundrect_rratio 0.223214)
	)
	(pad "5" smd roundrect
		(at -4.305 0)
		(size 2.44 1.12)
		(layers "F.Cu" "F.Paste" "F.Mask")
		(roundrect_rratio 0.223214)
	)
	(pad "6" smd roundrect
		(at -4.305 2.54)
		(size 2.44 1.12)
		(layers "F.Cu" "F.Paste" "F.Mask")
		(roundrect_rratio 0.223214)
	)
	(pad "7" smd roundrect
		(at -4.305 5.08)
		(size 2.44 1.12)
		(layers "F.Cu" "F.Paste" "F.Mask")
		(roundrect_rratio 0.223214)
	)
	(pad "8" smd roundrect
		(at -4.305 7.62)
		(size 2.44 1.12)
		(layers "F.Cu" "F.Paste" "F.Mask")
		(roundrect_rratio 0.223214)
	)
	(pad "9" smd roundrect
		(at -4.305 10.16)
		(size 2.44 1.12)
		(layers "F.Cu" "F.Paste" "F.Mask")
		(roundrect_rratio 0.223214)
	)
	(pad "10" smd roundrect
		(at 4.305 10.16)
		(size 2.44 1.12)
		(layers "F.Cu" "F.Paste" "F.Mask")
		(roundrect_rratio 0.223214)
	)
	(pad "11" smd roundrect
		(at 4.305 7.62)
		(size 2.44 1.12)
		(layers "F.Cu" "F.Paste" "F.Mask")
		(roundrect_rratio 0.223214)
	)
	(pad "12" smd roundrect
		(at 4.305 5.08)
		(size 2.44 1.12)
		(layers "F.Cu" "F.Paste" "F.Mask")
		(roundrect_rratio 0.223214)
	)
	(pad "13" smd roundrect
		(at 4.305 2.54)
		(size 2.44 1.12)
		(layers "F.Cu" "F.Paste" "F.Mask")
		(roundrect_rratio 0.223214)
	)
	(pad "14" smd roundrect
		(at 4.305 0)
		(size 2.44 1.12)
		(layers "F.Cu" "F.Paste" "F.Mask")
		(roundrect_rratio 0.223214)
	)
	(pad "15" smd roundrect
		(at 4.305 -2.54)
		(size 2.44 1.12)
		(layers "F.Cu" "F.Paste" "F.Mask")
		(roundrect_rratio 0.223214)
	)
	(pad "16" smd roundrect
		(at 4.305 -5.08)
		(size 2.44 1.12)
		(layers "F.Cu" "F.Paste" "F.Mask")
		(roundrect_rratio 0.223214)
	)
	(pad "17" smd roundrect
		(at 4.305 -7.62)
		(size 2.44 1.12)
		(layers "F.Cu" "F.Paste" "F.Mask")
		(roundrect_rratio 0.223214)
	)
	(pad "18" smd roundrect
		(at 4.305 -10.16)
		(size 2.44 1.12)
		(layers "F.Cu" "F.Paste" "F.Mask")
		(roundrect_rratio 0.223214)
	)
	(model "${KICAD8_3DMODEL_DIR}/Button_Switch_SMD.3dshapes/SW_DIP_SPSTx09_Slide_9.78x25.04mm_W8.61mm_P2.54mm.wrl"
		(offset
			(xyz 0 0 0)
		)
		(scale
			(xyz 1 1 1)
		)
		(rotate
			(xyz 0 0 90)
		)
	)
)
