(footprint "SW_DIP_SPSTx09_Slide_6.7x24.42mm_W8.61mm_P2.54mm_LowProfile"
	(version 20240108)
	(generator "kicad-footprint-generator")
	(layer "F.Cu")
	(descr "SMD 9x-dip-switch SPST , Slide, row spacing 8.61 mm (338 mils), body size 6.7x24.42mm (see e.g. https://www.ctscorp.com/wp-content/uploads/219.pdf), SMD, LowProfile")
	(tags "SMD DIP Switch SPST Slide 8.61mm 338mil SMD LowProfile")
	(property "Reference" "REF**"
		(at 0 -13.27 0)
		(layer "F.SilkS")
		(effects
			(font
				(size 1 1)
				(thickness 0.15)
			)
		)
	)
	(property "Value" "SW_DIP_SPSTx09_Slide_6.7x24.42mm_W8.61mm_P2.54mm_LowProfile"
		(at 0 13.27 0)
		(layer "F.Fab")
		(effects
			(font
				(size 1 1)
				(thickness 0.15)
			)
		)
	)
	(attr smd)
	(fp_line
		(start -3.65 -12.51)
		(end -3.65 -11.127)
		(stroke
			(width 0.12)
			(type solid)
		)
		(layer "F.SilkS")
	)
	(fp_line
		(start -3.65 -12.51)
		(end -2.267 -12.51)
		(stroke
			(width 0.12)
			(type solid)
		)
		(layer "F.SilkS")
	)
	(fp_line
		(start -3.41 -12.27)
		(end -3.41 -10.96)
		(stroke
			(width 0.12)
			(type solid)
		)
		(layer "F.SilkS")
	)
	(fp_line
		(start -3.41 -12.27)
		(end 3.41 -12.27)
		(stroke
			(width 0.12)
			(type solid)
		)
		(layer "F.SilkS")
	)
	(fp_line
		(start -3.41 -9.36)
		(end -3.41 -8.42)
		(stroke
			(width 0.12)
			(type solid)
		)
		(layer "F.SilkS")
	)
	(fp_line
		(start -3.41 -6.82)
		(end -3.41 -5.88)
		(stroke
			(width 0.12)
			(type solid)
		)
		(layer "F.SilkS")
	)
	(fp_line
		(start -3.41 -4.28)
		(end -3.41 -3.34)
		(stroke
			(width 0.12)
			(type solid)
		)
		(layer "F.SilkS")
	)
	(fp_line
		(start -3.41 -1.74)
		(end -3.41 -0.8)
		(stroke
			(width 0.12)
			(type solid)
		)
		(layer "F.SilkS")
	)
	(fp_line
		(start -3.41 0.8)
		(end -3.41 1.74)
		(stroke
			(width 0.12)
			(type solid)
		)
		(layer "F.SilkS")
	)
	(fp_line
		(start -3.41 3.34)
		(end -3.41 4.28)
		(stroke
			(width 0.12)
			(type solid)
		)
		(layer "F.SilkS")
	)
	(fp_line
		(start -3.41 5.88)
		(end -3.41 6.82)
		(stroke
			(width 0.12)
			(type solid)
		)
		(layer "F.SilkS")
	)
	(fp_line
		(start -3.41 8.42)
		(end -3.41 9.36)
		(stroke
			(width 0.12)
			(type solid)
		)
		(layer "F.SilkS")
	)
	(fp_line
		(start -3.41 10.96)
		(end -3.41 12.27)
		(stroke
			(width 0.12)
			(type solid)
		)
		(layer "F.SilkS")
	)
	(fp_line
		(start -3.41 12.27)
		(end 3.41 12.27)
		(stroke
			(width 0.12)
			(type solid)
		)
		(layer "F.SilkS")
	)
	(fp_line
		(start -0.603333 -10.795)
		(end -0.603333 -9.525)
		(stroke
			(width 0.12)
			(type solid)
		)
		(layer "F.SilkS")
	)
	(fp_line
		(start -0.603333 -8.255)
		(end -0.603333 -6.985)
		(stroke
			(width 0.12)
			(type solid)
		)
		(layer "F.SilkS")
	)
	(fp_line
		(start -0.603333 -5.715)
		(end -0.603333 -4.445)
		(stroke
			(width 0.12)
			(type solid)
		)
		(layer "F.SilkS")
	)
	(fp_line
		(start -0.603333 -3.175)
		(end -0.603333 -1.905)
		(stroke
			(width 0.12)
			(type solid)
		)
		(layer "F.SilkS")
	)
	(fp_line
		(start -0.603333 -0.635)
		(end -0.603333 0.635)
		(stroke
			(width 0.12)
			(type solid)
		)
		(layer "F.SilkS")
	)
	(fp_line
		(start -0.603333 1.905)
		(end -0.603333 3.175)
		(stroke
			(width 0.12)
			(type solid)
		)
		(layer "F.SilkS")
	)
	(fp_line
		(start -0.603333 4.445)
		(end -0.603333 5.715)
		(stroke
			(width 0.12)
			(type solid)
		)
		(layer "F.SilkS")
	)
	(fp_line
		(start -0.603333 6.985)
		(end -0.603333 8.255)
		(stroke
			(width 0.12)
			(type solid)
		)
		(layer "F.SilkS")
	)
	(fp_line
		(start -0.603333 9.525)
		(end -0.603333 10.795)
		(stroke
			(width 0.12)
			(type solid)
		)
		(layer "F.SilkS")
	)
	(fp_line
		(start 3.41 -12.27)
		(end 3.41 -10.96)
		(stroke
			(width 0.12)
			(type solid)
		)
		(layer "F.SilkS")
	)
	(fp_line
		(start 3.41 -9.36)
		(end 3.41 -8.42)
		(stroke
			(width 0.12)
			(type solid)
		)
		(layer "F.SilkS")
	)
	(fp_line
		(start 3.41 -6.82)
		(end 3.41 -5.88)
		(stroke
			(width 0.12)
			(type solid)
		)
		(layer "F.SilkS")
	)
	(fp_line
		(start 3.41 -4.28)
		(end 3.41 -3.34)
		(stroke
			(width 0.12)
			(type solid)
		)
		(layer "F.SilkS")
	)
	(fp_line
		(start 3.41 -1.74)
		(end 3.41 -0.8)
		(stroke
			(width 0.12)
			(type solid)
		)
		(layer "F.SilkS")
	)
	(fp_line
		(start 3.41 0.8)
		(end 3.41 1.74)
		(stroke
			(width 0.12)
			(type solid)
		)
		(layer "F.SilkS")
	)
	(fp_line
		(start 3.41 3.34)
		(end 3.41 4.28)
		(stroke
			(width 0.12)
			(type solid)
		)
		(layer "F.SilkS")
	)
	(fp_line
		(start 3.41 5.88)
		(end 3.41 6.82)
		(stroke
			(width 0.12)
			(type solid)
		)
		(layer "F.SilkS")
	)
	(fp_line
		(start 3.41 8.42)
		(end 3.41 9.36)
		(stroke
			(width 0.12)
			(type solid)
		)
		(layer "F.SilkS")
	)
	(fp_line
		(start 3.41 10.96)
		(end 3.41 12.27)
		(stroke
			(width 0.12)
			(type solid)
		)
		(layer "F.SilkS")
	)
	(fp_rect
		(start -1.81 -10.795)
		(end -0.603333 -9.525)
		(stroke
			(width 0.12)
			(type solid)
		)
		(fill solid)
		(layer "F.SilkS")
	)
	(fp_rect
		(start -1.81 -10.795)
		(end 1.81 -9.525)
		(stroke
			(width 0.12)
			(type solid)
		)
		(fill none)
		(layer "F.SilkS")
	)
	(fp_rect
		(start -1.81 -8.255)
		(end -0.603333 -6.985)
		(stroke
			(width 0.12)
			(type solid)
		)
		(fill solid)
		(layer "F.SilkS")
	)
	(fp_rect
		(start -1.81 -8.255)
		(end 1.81 -6.985)
		(stroke
			(width 0.12)
			(type solid)
		)
		(fill none)
		(layer "F.SilkS")
	)
	(fp_rect
		(start -1.81 -5.715)
		(end -0.603333 -4.445)
		(stroke
			(width 0.12)
			(type solid)
		)
		(fill solid)
		(layer "F.SilkS")
	)
	(fp_rect
		(start -1.81 -5.715)
		(end 1.81 -4.445)
		(stroke
			(width 0.12)
			(type solid)
		)
		(fill none)
		(layer "F.SilkS")
	)
	(fp_rect
		(start -1.81 -3.175)
		(end -0.603333 -1.905)
		(stroke
			(width 0.12)
			(type solid)
		)
		(fill solid)
		(layer "F.SilkS")
	)
	(fp_rect
		(start -1.81 -3.175)
		(end 1.81 -1.905)
		(stroke
			(width 0.12)
			(type solid)
		)
		(fill none)
		(layer "F.SilkS")
	)
	(fp_rect
		(start -1.81 -0.635)
		(end -0.603333 0.635)
		(stroke
			(width 0.12)
			(type solid)
		)
		(fill solid)
		(layer "F.SilkS")
	)
	(fp_rect
		(start -1.81 -0.635)
		(end 1.81 0.635)
		(stroke
			(width 0.12)
			(type solid)
		)
		(fill none)
		(layer "F.SilkS")
	)
	(fp_rect
		(start -1.81 1.905)
		(end -0.603333 3.175)
		(stroke
			(width 0.12)
			(type solid)
		)
		(fill solid)
		(layer "F.SilkS")
	)
	(fp_rect
		(start -1.81 1.905)
		(end 1.81 3.175)
		(stroke
			(width 0.12)
			(type solid)
		)
		(fill none)
		(layer "F.SilkS")
	)
	(fp_rect
		(start -1.81 4.445)
		(end -0.603333 5.715)
		(stroke
			(width 0.12)
			(type solid)
		)
		(fill solid)
		(layer "F.SilkS")
	)
	(fp_rect
		(start -1.81 4.445)
		(end 1.81 5.715)
		(stroke
			(width 0.12)
			(type solid)
		)
		(fill none)
		(layer "F.SilkS")
	)
	(fp_rect
		(start -1.81 6.985)
		(end -0.603333 8.255)
		(stroke
			(width 0.12)
			(type solid)
		)
		(fill solid)
		(layer "F.SilkS")
	)
	(fp_rect
		(start -1.81 6.985)
		(end 1.81 8.255)
		(stroke
			(width 0.12)
			(type solid)
		)
		(fill none)
		(layer "F.SilkS")
	)
	(fp_rect
		(start -1.81 9.525)
		(end -0.603333 10.795)
		(stroke
			(width 0.12)
			(type solid)
		)
		(fill solid)
		(layer "F.SilkS")
	)
	(fp_rect
		(start -1.81 9.525)
		(end 1.81 10.795)
		(stroke
			(width 0.12)
			(type solid)
		)
		(fill none)
		(layer "F.SilkS")
	)
	(fp_rect
		(start -5.78 -12.52)
		(end 5.78 12.52)
		(stroke
			(width 0.05)
			(type solid)
		)
		(fill none)
		(layer "F.CrtYd")
	)
	(fp_line
		(start -3.35 -11.21)
		(end -2.35 -12.21)
		(stroke
			(width 0.1)
			(type solid)
		)
		(layer "F.Fab")
	)
	(fp_line
		(start -3.35 12.21)
		(end -3.35 -11.21)
		(stroke
			(width 0.1)
			(type solid)
		)
		(layer "F.Fab")
	)
	(fp_line
		(start -2.35 -12.21)
		(end 3.35 -12.21)
		(stroke
			(width 0.1)
			(type solid)
		)
		(layer "F.Fab")
	)
	(fp_line
		(start -0.603333 -10.795)
		(end -0.603333 -9.525)
		(stroke
			(width 0.1)
			(type solid)
		)
		(layer "F.Fab")
	)
	(fp_line
		(start -0.603333 -8.255)
		(end -0.603333 -6.985)
		(stroke
			(width 0.1)
			(type solid)
		)
		(layer "F.Fab")
	)
	(fp_line
		(start -0.603333 -5.715)
		(end -0.603333 -4.445)
		(stroke
			(width 0.1)
			(type solid)
		)
		(layer "F.Fab")
	)
	(fp_line
		(start -0.603333 -3.175)
		(end -0.603333 -1.905)
		(stroke
			(width 0.1)
			(type solid)
		)
		(layer "F.Fab")
	)
	(fp_line
		(start -0.603333 -0.635)
		(end -0.603333 0.635)
		(stroke
			(width 0.1)
			(type solid)
		)
		(layer "F.Fab")
	)
	(fp_line
		(start -0.603333 1.905)
		(end -0.603333 3.175)
		(stroke
			(width 0.1)
			(type solid)
		)
		(layer "F.Fab")
	)
	(fp_line
		(start -0.603333 4.445)
		(end -0.603333 5.715)
		(stroke
			(width 0.1)
			(type solid)
		)
		(layer "F.Fab")
	)
	(fp_line
		(start -0.603333 6.985)
		(end -0.603333 8.255)
		(stroke
			(width 0.1)
			(type solid)
		)
		(layer "F.Fab")
	)
	(fp_line
		(start -0.603333 9.525)
		(end -0.603333 10.795)
		(stroke
			(width 0.1)
			(type solid)
		)
		(layer "F.Fab")
	)
	(fp_line
		(start 3.35 -12.21)
		(end 3.35 12.21)
		(stroke
			(width 0.1)
			(type solid)
		)
		(layer "F.Fab")
	)
	(fp_line
		(start 3.35 12.21)
		(end -3.35 12.21)
		(stroke
			(width 0.1)
			(type solid)
		)
		(layer "F.Fab")
	)
	(fp_rect
		(start -1.81 -10.795)
		(end -0.603333 -9.525)
		(stroke
			(width 0.1)
			(type solid)
		)
		(fill solid)
		(layer "F.Fab")
	)
	(fp_rect
		(start -1.81 -10.795)
		(end 1.81 -9.525)
		(stroke
			(width 0.1)
			(type solid)
		)
		(fill none)
		(layer "F.Fab")
	)
	(fp_rect
		(start -1.81 -8.255)
		(end -0.603333 -6.985)
		(stroke
			(width 0.1)
			(type solid)
		)
		(fill solid)
		(layer "F.Fab")
	)
	(fp_rect
		(start -1.81 -8.255)
		(end 1.81 -6.985)
		(stroke
			(width 0.1)
			(type solid)
		)
		(fill none)
		(layer "F.Fab")
	)
	(fp_rect
		(start -1.81 -5.715)
		(end -0.603333 -4.445)
		(stroke
			(width 0.1)
			(type solid)
		)
		(fill solid)
		(layer "F.Fab")
	)
	(fp_rect
		(start -1.81 -5.715)
		(end 1.81 -4.445)
		(stroke
			(width 0.1)
			(type solid)
		)
		(fill none)
		(layer "F.Fab")
	)
	(fp_rect
		(start -1.81 -3.175)
		(end -0.603333 -1.905)
		(stroke
			(width 0.1)
			(type solid)
		)
		(fill solid)
		(layer "F.Fab")
	)
	(fp_rect
		(start -1.81 -3.175)
		(end 1.81 -1.905)
		(stroke
			(width 0.1)
			(type solid)
		)
		(fill none)
		(layer "F.Fab")
	)
	(fp_rect
		(start -1.81 -0.635)
		(end -0.603333 0.635)
		(stroke
			(width 0.1)
			(type solid)
		)
		(fill solid)
		(layer "F.Fab")
	)
	(fp_rect
		(start -1.81 -0.635)
		(end 1.81 0.635)
		(stroke
			(width 0.1)
			(type solid)
		)
		(fill none)
		(layer "F.Fab")
	)
	(fp_rect
		(start -1.81 1.905)
		(end -0.603333 3.175)
		(stroke
			(width 0.1)
			(type solid)
		)
		(fill solid)
		(layer "F.Fab")
	)
	(fp_rect
		(start -1.81 1.905)
		(end 1.81 3.175)
		(stroke
			(width 0.1)
			(type solid)
		)
		(fill none)
		(layer "F.Fab")
	)
	(fp_rect
		(start -1.81 4.445)
		(end -0.603333 5.715)
		(stroke
			(width 0.1)
			(type solid)
		)
		(fill solid)
		(layer "F.Fab")
	)
	(fp_rect
		(start -1.81 4.445)
		(end 1.81 5.715)
		(stroke
			(width 0.1)
			(type solid)
		)
		(fill none)
		(layer "F.Fab")
	)
	(fp_rect
		(start -1.81 6.985)
		(end -0.603333 8.255)
		(stroke
			(width 0.1)
			(type solid)
		)
		(fill solid)
		(layer "F.Fab")
	)
	(fp_rect
		(start -1.81 6.985)
		(end 1.81 8.255)
		(stroke
			(width 0.1)
			(type solid)
		)
		(fill none)
		(layer "F.Fab")
	)
	(fp_rect
		(start -1.81 9.525)
		(end -0.603333 10.795)
		(stroke
			(width 0.1)
			(type solid)
		)
		(fill solid)
		(layer "F.Fab")
	)
	(fp_rect
		(start -1.81 9.525)
		(end 1.81 10.795)
		(stroke
			(width 0.1)
			(type solid)
		)
		(fill none)
		(layer "F.Fab")
	)
	(fp_text user "${REFERENCE}"
		(at 2.58 0 90)
		(layer "F.Fab")
		(effects
			(font
				(size 0.8 0.8)
				(thickness 0.12)
			)
		)
	)
	(fp_text user "on"
		(at 0.4275 -11.5025 0)
		(layer "F.Fab")
		(effects
			(font
				(size 0.8 0.8)
				(thickness 0.12)
			)
		)
	)
	(pad "1" smd roundrect
		(at -4.305 -10.16)
		(size 2.44 1.12)
		(layers "F.Cu" "F.Paste" "F.Mask")
		(roundrect_rratio 0.223214)
	)
	(pad "2" smd roundrect
		(at -4.305 -7.62)
		(size 2.44 1.12)
		(layers "F.Cu" "F.Paste" "F.Mask")
		(roundrect_rratio 0.223214)
	)
	(pad "3" smd roundrect
		(at -4.305 -5.08)
		(size 2.44 1.12)
		(layers "F.Cu" "F.Paste" "F.Mask")
		(roundrect_rratio 0.223214)
	)
	(pad "4" smd roundrect
		(at -4.305 -2.54)
		(size 2.44 1.12)
		(layers "F.Cu" "F.Paste" "F.Mask")
		(roundrect_rratio 0.223214)
	)
	(pad "5" smd roundrect
		(at -4.305 0)
		(size 2.44 1.12)
		(layers "F.Cu" "F.Paste" "F.Mask")
		(roundrect_rratio 0.223214)
	)
	(pad "6" smd roundrect
		(at -4.305 2.54)
		(size 2.44 1.12)
		(layers "F.Cu" "F.Paste" "F.Mask")
		(roundrect_rratio 0.223214)
	)
	(pad "7" smd roundrect
		(at -4.305 5.08)
		(size 2.44 1.12)
		(layers "F.Cu" "F.Paste" "F.Mask")
		(roundrect_rratio 0.223214)
	)
	(pad "8" smd roundrect
		(at -4.305 7.62)
		(size 2.44 1.12)
		(layers "F.Cu" "F.Paste" "F.Mask")
		(roundrect_rratio 0.223214)
	)
	(pad "9" smd roundrect
		(at -4.305 10.16)
		(size 2.44 1.12)
		(layers "F.Cu" "F.Paste" "F.Mask")
		(roundrect_rratio 0.223214)
	)
	(pad "10" smd roundrect
		(at 4.305 10.16)
		(size 2.44 1.12)
		(layers "F.Cu" "F.Paste" "F.Mask")
		(roundrect_rratio 0.223214)
	)
	(pad "11" smd roundrect
		(at 4.305 7.62)
		(size 2.44 1.12)
		(layers "F.Cu" "F.Paste" "F.Mask")
		(roundrect_rratio 0.223214)
	)
	(pad "12" smd roundrect
		(at 4.305 5.08)
		(size 2.44 1.12)
		(layers "F.Cu" "F.Paste" "F.Mask")
		(roundrect_rratio 0.223214)
	)
	(pad "13" smd roundrect
		(at 4.305 2.54)
		(size 2.44 1.12)
		(layers "F.Cu" "F.Paste" "F.Mask")
		(roundrect_rratio 0.223214)
	)
	(pad "14" smd roundrect
		(at 4.305 0)
		(size 2.44 1.12)
		(layers "F.Cu" "F.Paste" "F.Mask")
		(roundrect_rratio 0.223214)
	)
	(pad "15" smd roundrect
		(at 4.305 -2.54)
		(size 2.44 1.12)
		(layers "F.Cu" "F.Paste" "F.Mask")
		(roundrect_rratio 0.223214)
	)
	(pad "16" smd roundrect
		(at 4.305 -5.08)
		(size 2.44 1.12)
		(layers "F.Cu" "F.Paste" "F.Mask")
		(roundrect_rratio 0.223214)
	)
	(pad "17" smd roundrect
		(at 4.305 -7.62)
		(size 2.44 1.12)
		(layers "F.Cu" "F.Paste" "F.Mask")
		(roundrect_rratio 0.223214)
	)
	(pad "18" smd roundrect
		(at 4.305 -10.16)
		(size 2.44 1.12)
		(layers "F.Cu" "F.Paste" "F.Mask")
		(roundrect_rratio 0.223214)
	)
	(model "${KICAD8_3DMODEL_DIR}/Button_Switch_SMD.3dshapes/SW_DIP_SPSTx09_Slide_6.7x24.42mm_W8.61mm_P2.54mm_LowProfile.wrl"
		(offset
			(xyz 0 0 0)
		)
		(scale
			(xyz 1 1 1)
		)
		(rotate
			(xyz 0 0 90)
		)
	)
)
