(footprint "SW_DIP_SPSTx04_Slide_Copal_CHS-04A_W5.08mm_P1.27mm_JPin"
	(version 20240108)
	(generator "kicad-footprint-generator")
	(layer "F.Cu")
	(descr "SMD 4x-dip-switch SPST Copal_CHS-04A, Slide, row spacing 5.08 mm (200 mils), body size  (see http://www.nidec-copal-electronics.com/e/catalog/switch/chs.pdf), SMD, JPin")
	(tags "SMD DIP Switch SPST Slide 5.08mm 200mil SMD JPin")
	(property "Reference" "REF**"
		(at 0 -4.235 0)
		(layer "F.SilkS")
		(effects
			(font
				(size 1 1)
				(thickness 0.15)
			)
		)
	)
	(property "Value" "SW_DIP_SPSTx04_Slide_Copal_CHS-04A_W5.08mm_P1.27mm_JPin"
		(at 0 4.235 0)
		(layer "F.Fab")
		(effects
			(font
				(size 1 1)
				(thickness 0.15)
			)
		)
	)
	(attr smd)
	(fp_line
		(start -3.34 -2.585)
		(end -2.76 -2.585)
		(stroke
			(width 0.12)
			(type solid)
		)
		(layer "F.SilkS")
	)
	(fp_line
		(start -2.76 -3.235)
		(end -2.76 -2.585)
		(stroke
			(width 0.12)
			(type solid)
		)
		(layer "F.SilkS")
	)
	(fp_line
		(start -2.76 -3.235)
		(end 2.76 -3.235)
		(stroke
			(width 0.12)
			(type solid)
		)
		(layer "F.SilkS")
	)
	(fp_line
		(start -2.76 3.235)
		(end -2.76 2.525)
		(stroke
			(width 0.12)
			(type solid)
		)
		(layer "F.SilkS")
	)
	(fp_line
		(start -2.76 3.235)
		(end 2.76 3.235)
		(stroke
			(width 0.12)
			(type solid)
		)
		(layer "F.SilkS")
	)
	(fp_line
		(start 2.76 -3.235)
		(end 2.76 -2.525)
		(stroke
			(width 0.12)
			(type solid)
		)
		(layer "F.SilkS")
	)
	(fp_line
		(start 2.76 3.235)
		(end 2.76 2.525)
		(stroke
			(width 0.12)
			(type solid)
		)
		(layer "F.SilkS")
	)
	(fp_rect
		(start -3.59 -3.49)
		(end 3.59 3.49)
		(stroke
			(width 0.05)
			(type solid)
		)
		(fill none)
		(layer "F.CrtYd")
	)
	(fp_line
		(start -2.7 -2.175)
		(end -1.7 -3.175)
		(stroke
			(width 0.1)
			(type solid)
		)
		(layer "F.Fab")
	)
	(fp_line
		(start -2.7 3.175)
		(end -2.7 -2.175)
		(stroke
			(width 0.1)
			(type solid)
		)
		(layer "F.Fab")
	)
	(fp_line
		(start -1.7 -3.175)
		(end 2.7 -3.175)
		(stroke
			(width 0.1)
			(type solid)
		)
		(layer "F.Fab")
	)
	(fp_line
		(start -0.5 -2.155)
		(end -0.5 -1.655)
		(stroke
			(width 0.1)
			(type solid)
		)
		(layer "F.Fab")
	)
	(fp_line
		(start -0.5 -0.885)
		(end -0.5 -0.385)
		(stroke
			(width 0.1)
			(type solid)
		)
		(layer "F.Fab")
	)
	(fp_line
		(start -0.5 0.385)
		(end -0.5 0.885)
		(stroke
			(width 0.1)
			(type solid)
		)
		(layer "F.Fab")
	)
	(fp_line
		(start -0.5 1.655)
		(end -0.5 2.155)
		(stroke
			(width 0.1)
			(type solid)
		)
		(layer "F.Fab")
	)
	(fp_line
		(start 2.7 -3.175)
		(end 2.7 3.175)
		(stroke
			(width 0.1)
			(type solid)
		)
		(layer "F.Fab")
	)
	(fp_line
		(start 2.7 3.175)
		(end -2.7 3.175)
		(stroke
			(width 0.1)
			(type solid)
		)
		(layer "F.Fab")
	)
	(fp_rect
		(start -1.5 -2.155)
		(end -0.5 -1.655)
		(stroke
			(width 0.1)
			(type solid)
		)
		(fill solid)
		(layer "F.Fab")
	)
	(fp_rect
		(start -1.5 -2.155)
		(end 1.5 -1.655)
		(stroke
			(width 0.1)
			(type solid)
		)
		(fill none)
		(layer "F.Fab")
	)
	(fp_rect
		(start -1.5 -0.885)
		(end -0.5 -0.385)
		(stroke
			(width 0.1)
			(type solid)
		)
		(fill solid)
		(layer "F.Fab")
	)
	(fp_rect
		(start -1.5 -0.885)
		(end 1.5 -0.385)
		(stroke
			(width 0.1)
			(type solid)
		)
		(fill none)
		(layer "F.Fab")
	)
	(fp_rect
		(start -1.5 0.385)
		(end -0.5 0.885)
		(stroke
			(width 0.1)
			(type solid)
		)
		(fill solid)
		(layer "F.Fab")
	)
	(fp_rect
		(start -1.5 0.385)
		(end 1.5 0.885)
		(stroke
			(width 0.1)
			(type solid)
		)
		(fill none)
		(layer "F.Fab")
	)
	(fp_rect
		(start -1.5 1.655)
		(end -0.5 2.155)
		(stroke
			(width 0.1)
			(type solid)
		)
		(fill solid)
		(layer "F.Fab")
	)
	(fp_rect
		(start -1.5 1.655)
		(end 1.5 2.155)
		(stroke
			(width 0.1)
			(type solid)
		)
		(fill none)
		(layer "F.Fab")
	)
	(fp_text user "${REFERENCE}"
		(at 2.1 0 90)
		(layer "F.Fab")
		(effects
			(font
				(size 0.8 0.8)
				(thickness 0.12)
			)
		)
	)
	(fp_text user "on"
		(at 0.83 -2.665 0)
		(layer "F.Fab")
		(effects
			(font
				(size 0.8 0.8)
				(thickness 0.12)
			)
		)
	)
	(pad "1" smd roundrect
		(at -2.54 -1.905)
		(size 1.6 0.76)
		(layers "F.Cu" "F.Paste" "F.Mask")
		(roundrect_rratio 0.25)
	)
	(pad "2" smd roundrect
		(at -2.54 -0.635)
		(size 1.6 0.76)
		(layers "F.Cu" "F.Paste" "F.Mask")
		(roundrect_rratio 0.25)
	)
	(pad "3" smd roundrect
		(at -2.54 0.635)
		(size 1.6 0.76)
		(layers "F.Cu" "F.Paste" "F.Mask")
		(roundrect_rratio 0.25)
	)
	(pad "4" smd roundrect
		(at -2.54 1.905)
		(size 1.6 0.76)
		(layers "F.Cu" "F.Paste" "F.Mask")
		(roundrect_rratio 0.25)
	)
	(pad "5" smd roundrect
		(at 2.54 1.905)
		(size 1.6 0.76)
		(layers "F.Cu" "F.Paste" "F.Mask")
		(roundrect_rratio 0.25)
	)
	(pad "6" smd roundrect
		(at 2.54 0.635)
		(size 1.6 0.76)
		(layers "F.Cu" "F.Paste" "F.Mask")
		(roundrect_rratio 0.25)
	)
	(pad "7" smd roundrect
		(at 2.54 -0.635)
		(size 1.6 0.76)
		(layers "F.Cu" "F.Paste" "F.Mask")
		(roundrect_rratio 0.25)
	)
	(pad "8" smd roundrect
		(at 2.54 -1.905)
		(size 1.6 0.76)
		(layers "F.Cu" "F.Paste" "F.Mask")
		(roundrect_rratio 0.25)
	)
	(model "${KICAD8_3DMODEL_DIR}/Button_Switch_SMD.3dshapes/SW_DIP_SPSTx04_Slide_Copal_CHS-04A_W5.08mm_P1.27mm_JPin.wrl"
		(offset
			(xyz 0 0 0)
		)
		(scale
			(xyz 1 1 1)
		)
		(rotate
			(xyz 0 0 0)
		)
	)
)
