(footprint "SW_DIP_SPSTx01_Slide_Copal_CVS-01xB_W5.9mm_P1mm"
	(version 20240108)
	(generator "kicad-footprint-generator")
	(layer "F.Cu")
	(descr "SMD 1x-dip-switch SPST Copal_CVS-01xB, Slide, row spacing 5.9 mm (232 mils), body size  (see http://www.nidec-copal-electronics.com/e/catalog/switch/cvs.pdf)")
	(tags "SMD DIP Switch SPST Slide 5.9mm 232mil")
	(property "Reference" "REF**"
		(at 0 -2.41 0)
		(layer "F.SilkS")
		(effects
			(font
				(size 1 1)
				(thickness 0.15)
			)
		)
	)
	(property "Value" "SW_DIP_SPSTx01_Slide_Copal_CVS-01xB_W5.9mm_P1mm"
		(at 0 2.41 0)
		(layer "F.Fab")
		(effects
			(font
				(size 1 1)
				(thickness 0.15)
			)
		)
	)
	(attr smd)
	(fp_line
		(start -3.55 -0.55)
		(end -2.74 -0.55)
		(stroke
			(width 0.12)
			(type solid)
		)
		(layer "F.SilkS")
	)
	(fp_line
		(start -1.56 -1.41)
		(end 1.56 -1.41)
		(stroke
			(width 0.12)
			(type solid)
		)
		(layer "F.SilkS")
	)
	(fp_line
		(start -1.56 1.41)
		(end 1.56 1.41)
		(stroke
			(width 0.12)
			(type solid)
		)
		(layer "F.SilkS")
	)
	(fp_rect
		(start -3.8 -1.66)
		(end 3.8 1.66)
		(stroke
			(width 0.05)
			(type solid)
		)
		(fill none)
		(layer "F.CrtYd")
	)
	(fp_line
		(start -2.35 0)
		(end -1.35 -1)
		(stroke
			(width 0.1)
			(type solid)
		)
		(layer "F.Fab")
	)
	(fp_line
		(start -2.35 1)
		(end -2.35 0)
		(stroke
			(width 0.1)
			(type solid)
		)
		(layer "F.Fab")
	)
	(fp_line
		(start -1.35 -1)
		(end 2.35 -1)
		(stroke
			(width 0.1)
			(type solid)
		)
		(layer "F.Fab")
	)
	(fp_line
		(start -0.333333 -0.25)
		(end -0.333333 0.25)
		(stroke
			(width 0.1)
			(type solid)
		)
		(layer "F.Fab")
	)
	(fp_line
		(start 2.35 -1)
		(end 2.35 1)
		(stroke
			(width 0.1)
			(type solid)
		)
		(layer "F.Fab")
	)
	(fp_line
		(start 2.35 1)
		(end -2.35 1)
		(stroke
			(width 0.1)
			(type solid)
		)
		(layer "F.Fab")
	)
	(fp_rect
		(start -1 -0.25)
		(end -0.333333 0.25)
		(stroke
			(width 0.1)
			(type solid)
		)
		(fill solid)
		(layer "F.Fab")
	)
	(fp_rect
		(start -1 -0.25)
		(end 1 0.25)
		(stroke
			(width 0.1)
			(type solid)
		)
		(fill none)
		(layer "F.Fab")
	)
	(fp_text user "${REFERENCE}"
		(at 1.675 0 90)
		(layer "F.Fab")
		(effects
			(font
				(size 0.6 0.6)
				(thickness 0.09)
			)
		)
	)
	(fp_text user "on"
		(at 0.2 -0.625 0)
		(layer "F.Fab")
		(effects
			(font
				(size 0.6 0.6)
				(thickness 0.09)
			)
		)
	)
	(pad "1" smd roundrect
		(at -2.95 0)
		(size 1.2 0.5)
		(layers "F.Cu" "F.Paste" "F.Mask")
		(roundrect_rratio 0.25)
	)
	(pad "2" smd roundrect
		(at 2.95 0)
		(size 1.2 0.5)
		(layers "F.Cu" "F.Paste" "F.Mask")
		(roundrect_rratio 0.25)
	)
	(pad "3" smd roundrect
		(at -2.15 -1)
		(size 0.7 0.7)
		(layers "F.Cu" "F.Paste" "F.Mask")
		(roundrect_rratio 0.25)
	)
	(pad "3" smd roundrect
		(at -2.15 1)
		(size 0.7 0.7)
		(layers "F.Cu" "F.Paste" "F.Mask")
		(roundrect_rratio 0.25)
	)
	(pad "3" smd roundrect
		(at 2.15 -1)
		(size 0.7 0.7)
		(layers "F.Cu" "F.Paste" "F.Mask")
		(roundrect_rratio 0.25)
	)
	(pad "3" smd roundrect
		(at 2.15 1)
		(size 0.7 0.7)
		(layers "F.Cu" "F.Paste" "F.Mask")
		(roundrect_rratio 0.25)
	)
	(model "${KICAD8_3DMODEL_DIR}/Button_Switch_SMD.3dshapes/SW_DIP_SPSTx01_Slide_Copal_CVS-01xB_W5.9mm_P1mm.wrl"
		(offset
			(xyz 0 0 0)
		)
		(scale
			(xyz 1 1 1)
		)
		(rotate
			(xyz 0 0 0)
		)
	)
)
