(footprint "SW_DIP_SPSTx07_Slide_Omron_A6S-710x_W8.9mm_P2.54mm"
	(version 20240108)
	(generator "kicad-footprint-generator")
	(layer "F.Cu")
	(descr "SMD 7x-dip-switch SPST Omron_A6S-710x, Slide, row spacing 8.9 mm (350 mils), body size  (see http://omronfs.omron.com/en_US/ecb/products/pdf/en-a6s.pdf)")
	(tags "SMD DIP Switch SPST Slide 8.9mm 350mil")
	(property "Reference" "REF**"
		(at 0 -10.42 0)
		(layer "F.SilkS")
		(effects
			(font
				(size 1 1)
				(thickness 0.15)
			)
		)
	)
	(property "Value" "SW_DIP_SPSTx07_Slide_Omron_A6S-710x_W8.9mm_P2.54mm"
		(at 0 10.42 0)
		(layer "F.Fab")
		(effects
			(font
				(size 1 1)
				(thickness 0.15)
			)
		)
	)
	(attr smd)
	(fp_line
		(start -5.2 -8.47)
		(end -3.16 -8.47)
		(stroke
			(width 0.12)
			(type solid)
		)
		(layer "F.SilkS")
	)
	(fp_line
		(start -3.16 -9.42)
		(end -3.16 -8.47)
		(stroke
			(width 0.12)
			(type solid)
		)
		(layer "F.SilkS")
	)
	(fp_line
		(start -3.16 -9.42)
		(end 3.16 -9.42)
		(stroke
			(width 0.12)
			(type solid)
		)
		(layer "F.SilkS")
	)
	(fp_line
		(start -3.16 9.42)
		(end -3.16 7.68)
		(stroke
			(width 0.12)
			(type solid)
		)
		(layer "F.SilkS")
	)
	(fp_line
		(start -3.16 9.42)
		(end 3.16 9.42)
		(stroke
			(width 0.12)
			(type solid)
		)
		(layer "F.SilkS")
	)
	(fp_line
		(start 3.16 -9.42)
		(end 3.16 -7.68)
		(stroke
			(width 0.12)
			(type solid)
		)
		(layer "F.SilkS")
	)
	(fp_line
		(start 3.16 9.42)
		(end 3.16 7.68)
		(stroke
			(width 0.12)
			(type solid)
		)
		(layer "F.SilkS")
	)
	(fp_rect
		(start -5.45 -9.67)
		(end 5.45 9.67)
		(stroke
			(width 0.05)
			(type solid)
		)
		(fill none)
		(layer "F.CrtYd")
	)
	(fp_line
		(start -3.1 -8.36)
		(end -2.1 -9.36)
		(stroke
			(width 0.1)
			(type solid)
		)
		(layer "F.Fab")
	)
	(fp_line
		(start -3.1 9.36)
		(end -3.1 -8.36)
		(stroke
			(width 0.1)
			(type solid)
		)
		(layer "F.Fab")
	)
	(fp_line
		(start -2.1 -9.36)
		(end 3.1 -9.36)
		(stroke
			(width 0.1)
			(type solid)
		)
		(layer "F.Fab")
	)
	(fp_line
		(start -0.5 -8.17)
		(end -0.5 -7.07)
		(stroke
			(width 0.1)
			(type solid)
		)
		(layer "F.Fab")
	)
	(fp_line
		(start -0.5 -5.63)
		(end -0.5 -4.53)
		(stroke
			(width 0.1)
			(type solid)
		)
		(layer "F.Fab")
	)
	(fp_line
		(start -0.5 -3.09)
		(end -0.5 -1.99)
		(stroke
			(width 0.1)
			(type solid)
		)
		(layer "F.Fab")
	)
	(fp_line
		(start -0.5 -0.55)
		(end -0.5 0.55)
		(stroke
			(width 0.1)
			(type solid)
		)
		(layer "F.Fab")
	)
	(fp_line
		(start -0.5 1.99)
		(end -0.5 3.09)
		(stroke
			(width 0.1)
			(type solid)
		)
		(layer "F.Fab")
	)
	(fp_line
		(start -0.5 4.53)
		(end -0.5 5.63)
		(stroke
			(width 0.1)
			(type solid)
		)
		(layer "F.Fab")
	)
	(fp_line
		(start -0.5 7.07)
		(end -0.5 8.17)
		(stroke
			(width 0.1)
			(type solid)
		)
		(layer "F.Fab")
	)
	(fp_line
		(start 3.1 -9.36)
		(end 3.1 9.36)
		(stroke
			(width 0.1)
			(type solid)
		)
		(layer "F.Fab")
	)
	(fp_line
		(start 3.1 9.36)
		(end -3.1 9.36)
		(stroke
			(width 0.1)
			(type solid)
		)
		(layer "F.Fab")
	)
	(fp_rect
		(start -1.5 -8.17)
		(end -0.5 -7.07)
		(stroke
			(width 0.1)
			(type solid)
		)
		(fill solid)
		(layer "F.Fab")
	)
	(fp_rect
		(start -1.5 -8.17)
		(end 1.5 -7.07)
		(stroke
			(width 0.1)
			(type solid)
		)
		(fill none)
		(layer "F.Fab")
	)
	(fp_rect
		(start -1.5 -5.63)
		(end -0.5 -4.53)
		(stroke
			(width 0.1)
			(type solid)
		)
		(fill solid)
		(layer "F.Fab")
	)
	(fp_rect
		(start -1.5 -5.63)
		(end 1.5 -4.53)
		(stroke
			(width 0.1)
			(type solid)
		)
		(fill none)
		(layer "F.Fab")
	)
	(fp_rect
		(start -1.5 -3.09)
		(end -0.5 -1.99)
		(stroke
			(width 0.1)
			(type solid)
		)
		(fill solid)
		(layer "F.Fab")
	)
	(fp_rect
		(start -1.5 -3.09)
		(end 1.5 -1.99)
		(stroke
			(width 0.1)
			(type solid)
		)
		(fill none)
		(layer "F.Fab")
	)
	(fp_rect
		(start -1.5 -0.55)
		(end -0.5 0.55)
		(stroke
			(width 0.1)
			(type solid)
		)
		(fill solid)
		(layer "F.Fab")
	)
	(fp_rect
		(start -1.5 -0.55)
		(end 1.5 0.55)
		(stroke
			(width 0.1)
			(type solid)
		)
		(fill none)
		(layer "F.Fab")
	)
	(fp_rect
		(start -1.5 1.99)
		(end -0.5 3.09)
		(stroke
			(width 0.1)
			(type solid)
		)
		(fill solid)
		(layer "F.Fab")
	)
	(fp_rect
		(start -1.5 1.99)
		(end 1.5 3.09)
		(stroke
			(width 0.1)
			(type solid)
		)
		(fill none)
		(layer "F.Fab")
	)
	(fp_rect
		(start -1.5 4.53)
		(end -0.5 5.63)
		(stroke
			(width 0.1)
			(type solid)
		)
		(fill solid)
		(layer "F.Fab")
	)
	(fp_rect
		(start -1.5 4.53)
		(end 1.5 5.63)
		(stroke
			(width 0.1)
			(type solid)
		)
		(fill none)
		(layer "F.Fab")
	)
	(fp_rect
		(start -1.5 7.07)
		(end -0.5 8.17)
		(stroke
			(width 0.1)
			(type solid)
		)
		(fill solid)
		(layer "F.Fab")
	)
	(fp_rect
		(start -1.5 7.07)
		(end 1.5 8.17)
		(stroke
			(width 0.1)
			(type solid)
		)
		(fill none)
		(layer "F.Fab")
	)
	(fp_text user "${REFERENCE}"
		(at 2.3 0 90)
		(layer "F.Fab")
		(effects
			(font
				(size 0.8 0.8)
				(thickness 0.12)
			)
		)
	)
	(fp_text user "on"
		(at 0.075 -8.765 0)
		(layer "F.Fab")
		(effects
			(font
				(size 0.8 0.8)
				(thickness 0.12)
			)
		)
	)
	(pad "1" smd roundrect
		(at -4.45 -7.62)
		(size 1.5 1.1)
		(layers "F.Cu" "F.Paste" "F.Mask")
		(roundrect_rratio 0.227273)
	)
	(pad "2" smd roundrect
		(at -4.45 -5.08)
		(size 1.5 1.1)
		(layers "F.Cu" "F.Paste" "F.Mask")
		(roundrect_rratio 0.227273)
	)
	(pad "3" smd roundrect
		(at -4.45 -2.54)
		(size 1.5 1.1)
		(layers "F.Cu" "F.Paste" "F.Mask")
		(roundrect_rratio 0.227273)
	)
	(pad "4" smd roundrect
		(at -4.45 0)
		(size 1.5 1.1)
		(layers "F.Cu" "F.Paste" "F.Mask")
		(roundrect_rratio 0.227273)
	)
	(pad "5" smd roundrect
		(at -4.45 2.54)
		(size 1.5 1.1)
		(layers "F.Cu" "F.Paste" "F.Mask")
		(roundrect_rratio 0.227273)
	)
	(pad "6" smd roundrect
		(at -4.45 5.08)
		(size 1.5 1.1)
		(layers "F.Cu" "F.Paste" "F.Mask")
		(roundrect_rratio 0.227273)
	)
	(pad "7" smd roundrect
		(at -4.45 7.62)
		(size 1.5 1.1)
		(layers "F.Cu" "F.Paste" "F.Mask")
		(roundrect_rratio 0.227273)
	)
	(pad "8" smd roundrect
		(at 4.45 7.62)
		(size 1.5 1.1)
		(layers "F.Cu" "F.Paste" "F.Mask")
		(roundrect_rratio 0.227273)
	)
	(pad "9" smd roundrect
		(at 4.45 5.08)
		(size 1.5 1.1)
		(layers "F.Cu" "F.Paste" "F.Mask")
		(roundrect_rratio 0.227273)
	)
	(pad "10" smd roundrect
		(at 4.45 2.54)
		(size 1.5 1.1)
		(layers "F.Cu" "F.Paste" "F.Mask")
		(roundrect_rratio 0.227273)
	)
	(pad "11" smd roundrect
		(at 4.45 0)
		(size 1.5 1.1)
		(layers "F.Cu" "F.Paste" "F.Mask")
		(roundrect_rratio 0.227273)
	)
	(pad "12" smd roundrect
		(at 4.45 -2.54)
		(size 1.5 1.1)
		(layers "F.Cu" "F.Paste" "F.Mask")
		(roundrect_rratio 0.227273)
	)
	(pad "13" smd roundrect
		(at 4.45 -5.08)
		(size 1.5 1.1)
		(layers "F.Cu" "F.Paste" "F.Mask")
		(roundrect_rratio 0.227273)
	)
	(pad "14" smd roundrect
		(at 4.45 -7.62)
		(size 1.5 1.1)
		(layers "F.Cu" "F.Paste" "F.Mask")
		(roundrect_rratio 0.227273)
	)
	(model "${KICAD8_3DMODEL_DIR}/Button_Switch_SMD.3dshapes/SW_DIP_SPSTx07_Slide_Omron_A6S-710x_W8.9mm_P2.54mm.wrl"
		(offset
			(xyz 0 0 0)
		)
		(scale
			(xyz 1 1 1)
		)
		(rotate
			(xyz 0 0 0)
		)
	)
)
