(footprint "DIP-28_W15.24mm_LongPads"
	(version 20240108)
	(generator "kicad-footprint-generator")
	(layer "F.Cu")
	(descr "28-lead though-hole mounted DIP package, row spacing 15.24mm (600 mils), LongPads")
	(tags "THT DIP DIL PDIP 2.54mm 15.24mm 600mil LongPads")
	(property "Reference" "REF**"
		(at 7.62 -2.33 0)
		(layer "F.SilkS")
		(effects
			(font
				(size 1 1)
				(thickness 0.15)
			)
		)
	)
	(property "Value" "DIP-28_W15.24mm_LongPads"
		(at 7.62 35.35 0)
		(layer "F.Fab")
		(effects
			(font
				(size 1 1)
				(thickness 0.15)
			)
		)
	)
	(attr through_hole)
	(fp_line
		(start 1.56 -1.33)
		(end 1.56 34.35)
		(stroke
			(width 0.12)
			(type solid)
		)
		(layer "F.SilkS")
	)
	(fp_line
		(start 1.56 34.35)
		(end 13.68 34.35)
		(stroke
			(width 0.12)
			(type solid)
		)
		(layer "F.SilkS")
	)
	(fp_line
		(start 6.62 -1.33)
		(end 1.56 -1.33)
		(stroke
			(width 0.12)
			(type solid)
		)
		(layer "F.SilkS")
	)
	(fp_line
		(start 13.68 -1.33)
		(end 8.62 -1.33)
		(stroke
			(width 0.12)
			(type solid)
		)
		(layer "F.SilkS")
	)
	(fp_line
		(start 13.68 34.35)
		(end 13.68 -1.33)
		(stroke
			(width 0.12)
			(type solid)
		)
		(layer "F.SilkS")
	)
	(fp_arc
		(start 8.62 -1.33)
		(mid 7.62 -0.33)
		(end 6.62 -1.33)
		(stroke
			(width 0.12)
			(type solid)
		)
		(layer "F.SilkS")
	)
	(fp_rect
		(start -1.46 -1.53)
		(end 16.69 34.55)
		(stroke
			(width 0.05)
			(type solid)
		)
		(fill none)
		(layer "F.CrtYd")
	)
	(fp_line
		(start 0.255 -0.27)
		(end 1.255 -1.27)
		(stroke
			(width 0.1)
			(type solid)
		)
		(layer "F.Fab")
	)
	(fp_line
		(start 0.255 34.29)
		(end 0.255 -0.27)
		(stroke
			(width 0.1)
			(type solid)
		)
		(layer "F.Fab")
	)
	(fp_line
		(start 1.255 -1.27)
		(end 14.985 -1.27)
		(stroke
			(width 0.1)
			(type solid)
		)
		(layer "F.Fab")
	)
	(fp_line
		(start 14.985 -1.27)
		(end 14.985 34.29)
		(stroke
			(width 0.1)
			(type solid)
		)
		(layer "F.Fab")
	)
	(fp_line
		(start 14.985 34.29)
		(end 0.255 34.29)
		(stroke
			(width 0.1)
			(type solid)
		)
		(layer "F.Fab")
	)
	(fp_text user "${REFERENCE}"
		(at 7.62 16.51 90)
		(layer "F.Fab")
		(effects
			(font
				(size 1 1)
				(thickness 0.15)
			)
		)
	)
	(pad "1" thru_hole roundrect
		(at 0 0)
		(size 2.4 1.6)
		(drill 0.8)
		(layers "*.Cu" "*.Mask")
		(remove_unused_layers no)
		(roundrect_rratio 0.15625)
	)
	(pad "2" thru_hole oval
		(at 0 2.54)
		(size 2.4 1.6)
		(drill 0.8)
		(layers "*.Cu" "*.Mask")
		(remove_unused_layers no)
	)
	(pad "3" thru_hole oval
		(at 0 5.08)
		(size 2.4 1.6)
		(drill 0.8)
		(layers "*.Cu" "*.Mask")
		(remove_unused_layers no)
	)
	(pad "4" thru_hole oval
		(at 0 7.62)
		(size 2.4 1.6)
		(drill 0.8)
		(layers "*.Cu" "*.Mask")
		(remove_unused_layers no)
	)
	(pad "5" thru_hole oval
		(at 0 10.16)
		(size 2.4 1.6)
		(drill 0.8)
		(layers "*.Cu" "*.Mask")
		(remove_unused_layers no)
	)
	(pad "6" thru_hole oval
		(at 0 12.7)
		(size 2.4 1.6)
		(drill 0.8)
		(layers "*.Cu" "*.Mask")
		(remove_unused_layers no)
	)
	(pad "7" thru_hole oval
		(at 0 15.24)
		(size 2.4 1.6)
		(drill 0.8)
		(layers "*.Cu" "*.Mask")
		(remove_unused_layers no)
	)
	(pad "8" thru_hole oval
		(at 0 17.78)
		(size 2.4 1.6)
		(drill 0.8)
		(layers "*.Cu" "*.Mask")
		(remove_unused_layers no)
	)
	(pad "9" thru_hole oval
		(at 0 20.32)
		(size 2.4 1.6)
		(drill 0.8)
		(layers "*.Cu" "*.Mask")
		(remove_unused_layers no)
	)
	(pad "10" thru_hole oval
		(at 0 22.86)
		(size 2.4 1.6)
		(drill 0.8)
		(layers "*.Cu" "*.Mask")
		(remove_unused_layers no)
	)
	(pad "11" thru_hole oval
		(at 0 25.4)
		(size 2.4 1.6)
		(drill 0.8)
		(layers "*.Cu" "*.Mask")
		(remove_unused_layers no)
	)
	(pad "12" thru_hole oval
		(at 0 27.94)
		(size 2.4 1.6)
		(drill 0.8)
		(layers "*.Cu" "*.Mask")
		(remove_unused_layers no)
	)
	(pad "13" thru_hole oval
		(at 0 30.48)
		(size 2.4 1.6)
		(drill 0.8)
		(layers "*.Cu" "*.Mask")
		(remove_unused_layers no)
	)
	(pad "14" thru_hole oval
		(at 0 33.02)
		(size 2.4 1.6)
		(drill 0.8)
		(layers "*.Cu" "*.Mask")
		(remove_unused_layers no)
	)
	(pad "15" thru_hole oval
		(at 15.24 33.02)
		(size 2.4 1.6)
		(drill 0.8)
		(layers "*.Cu" "*.Mask")
		(remove_unused_layers no)
	)
	(pad "16" thru_hole oval
		(at 15.24 30.48)
		(size 2.4 1.6)
		(drill 0.8)
		(layers "*.Cu" "*.Mask")
		(remove_unused_layers no)
	)
	(pad "17" thru_hole oval
		(at 15.24 27.94)
		(size 2.4 1.6)
		(drill 0.8)
		(layers "*.Cu" "*.Mask")
		(remove_unused_layers no)
	)
	(pad "18" thru_hole oval
		(at 15.24 25.4)
		(size 2.4 1.6)
		(drill 0.8)
		(layers "*.Cu" "*.Mask")
		(remove_unused_layers no)
	)
	(pad "19" thru_hole oval
		(at 15.24 22.86)
		(size 2.4 1.6)
		(drill 0.8)
		(layers "*.Cu" "*.Mask")
		(remove_unused_layers no)
	)
	(pad "20" thru_hole oval
		(at 15.24 20.32)
		(size 2.4 1.6)
		(drill 0.8)
		(layers "*.Cu" "*.Mask")
		(remove_unused_layers no)
	)
	(pad "21" thru_hole oval
		(at 15.24 17.78)
		(size 2.4 1.6)
		(drill 0.8)
		(layers "*.Cu" "*.Mask")
		(remove_unused_layers no)
	)
	(pad "22" thru_hole oval
		(at 15.24 15.24)
		(size 2.4 1.6)
		(drill 0.8)
		(layers "*.Cu" "*.Mask")
		(remove_unused_layers no)
	)
	(pad "23" thru_hole oval
		(at 15.24 12.7)
		(size 2.4 1.6)
		(drill 0.8)
		(layers "*.Cu" "*.Mask")
		(remove_unused_layers no)
	)
	(pad "24" thru_hole oval
		(at 15.24 10.16)
		(size 2.4 1.6)
		(drill 0.8)
		(layers "*.Cu" "*.Mask")
		(remove_unused_layers no)
	)
	(pad "25" thru_hole oval
		(at 15.24 7.62)
		(size 2.4 1.6)
		(drill 0.8)
		(layers "*.Cu" "*.Mask")
		(remove_unused_layers no)
	)
	(pad "26" thru_hole oval
		(at 15.24 5.08)
		(size 2.4 1.6)
		(drill 0.8)
		(layers "*.Cu" "*.Mask")
		(remove_unused_layers no)
	)
	(pad "27" thru_hole oval
		(at 15.24 2.54)
		(size 2.4 1.6)
		(drill 0.8)
		(layers "*.Cu" "*.Mask")
		(remove_unused_layers no)
	)
	(pad "28" thru_hole oval
		(at 15.24 0)
		(size 2.4 1.6)
		(drill 0.8)
		(layers "*.Cu" "*.Mask")
		(remove_unused_layers no)
	)
	(model "${KICAD8_3DMODEL_DIR}/Package_DIP.3dshapes/DIP-28_W15.24mm_LongPads.wrl"
		(offset
			(xyz 0 0 0)
		)
		(scale
			(xyz 1 1 1)
		)
		(rotate
			(xyz 0 0 0)
		)
	)
)
