(footprint "DIP-22_W8.89mm_SMDSocket_LongPads"
	(version 20240108)
	(generator "kicad-footprint-generator")
	(layer "F.Cu")
	(descr "22-lead though-hole mounted DIP package, row spacing 8.89mm (350 mils), SMDSocket, LongPads")
	(tags "THT DIP DIL PDIP 2.54mm 8.89mm 350mil SMDSocket LongPads")
	(property "Reference" "REF**"
		(at 0 -15.03 0)
		(layer "F.SilkS")
		(effects
			(font
				(size 1 1)
				(thickness 0.15)
			)
		)
	)
	(property "Value" "DIP-22_W8.89mm_SMDSocket_LongPads"
		(at 0 15.03 0)
		(layer "F.Fab")
		(effects
			(font
				(size 1 1)
				(thickness 0.15)
			)
		)
	)
	(attr smd)
	(fp_line
		(start -2.535 -14.03)
		(end -2.535 14.03)
		(stroke
			(width 0.12)
			(type solid)
		)
		(layer "F.SilkS")
	)
	(fp_line
		(start -2.535 14.03)
		(end 2.535 14.03)
		(stroke
			(width 0.12)
			(type solid)
		)
		(layer "F.SilkS")
	)
	(fp_line
		(start -1 -14.03)
		(end -2.535 -14.03)
		(stroke
			(width 0.12)
			(type solid)
		)
		(layer "F.SilkS")
	)
	(fp_line
		(start 2.535 -14.03)
		(end 1 -14.03)
		(stroke
			(width 0.12)
			(type solid)
		)
		(layer "F.SilkS")
	)
	(fp_line
		(start 2.535 14.03)
		(end 2.535 -14.03)
		(stroke
			(width 0.12)
			(type solid)
		)
		(layer "F.SilkS")
	)
	(fp_rect
		(start -6.235 -14.09)
		(end 6.235 14.09)
		(stroke
			(width 0.12)
			(type solid)
		)
		(fill none)
		(layer "F.SilkS")
	)
	(fp_arc
		(start 1 -14.03)
		(mid 0 -13.03)
		(end -1 -14.03)
		(stroke
			(width 0.12)
			(type solid)
		)
		(layer "F.SilkS")
	)
	(fp_rect
		(start -6.25 -14.28)
		(end 6.25 14.28)
		(stroke
			(width 0.05)
			(type solid)
		)
		(fill none)
		(layer "F.CrtYd")
	)
	(fp_line
		(start -3.175 -12.97)
		(end -2.175 -13.97)
		(stroke
			(width 0.1)
			(type solid)
		)
		(layer "F.Fab")
	)
	(fp_line
		(start -3.175 13.97)
		(end -3.175 -12.97)
		(stroke
			(width 0.1)
			(type solid)
		)
		(layer "F.Fab")
	)
	(fp_line
		(start -2.175 -13.97)
		(end 3.175 -13.97)
		(stroke
			(width 0.1)
			(type solid)
		)
		(layer "F.Fab")
	)
	(fp_line
		(start 3.175 -13.97)
		(end 3.175 13.97)
		(stroke
			(width 0.1)
			(type solid)
		)
		(layer "F.Fab")
	)
	(fp_line
		(start 3.175 13.97)
		(end -3.175 13.97)
		(stroke
			(width 0.1)
			(type solid)
		)
		(layer "F.Fab")
	)
	(fp_rect
		(start -5.08 -14.03)
		(end 5.08 14.03)
		(stroke
			(width 0.1)
			(type solid)
		)
		(fill none)
		(layer "F.Fab")
	)
	(fp_text user "${REFERENCE}"
		(at 0 0 90)
		(layer "F.Fab")
		(effects
			(font
				(size 1 1)
				(thickness 0.15)
			)
		)
	)
	(pad "1" smd roundrect
		(at -4.445 -12.7)
		(size 3.1 1.6)
		(layers "F.Cu" "F.Paste" "F.Mask")
		(roundrect_rratio 0.15625)
	)
	(pad "2" smd roundrect
		(at -4.445 -10.16)
		(size 3.1 1.6)
		(layers "F.Cu" "F.Paste" "F.Mask")
		(roundrect_rratio 0.15625)
	)
	(pad "3" smd roundrect
		(at -4.445 -7.62)
		(size 3.1 1.6)
		(layers "F.Cu" "F.Paste" "F.Mask")
		(roundrect_rratio 0.15625)
	)
	(pad "4" smd roundrect
		(at -4.445 -5.08)
		(size 3.1 1.6)
		(layers "F.Cu" "F.Paste" "F.Mask")
		(roundrect_rratio 0.15625)
	)
	(pad "5" smd roundrect
		(at -4.445 -2.54)
		(size 3.1 1.6)
		(layers "F.Cu" "F.Paste" "F.Mask")
		(roundrect_rratio 0.15625)
	)
	(pad "6" smd roundrect
		(at -4.445 0)
		(size 3.1 1.6)
		(layers "F.Cu" "F.Paste" "F.Mask")
		(roundrect_rratio 0.15625)
	)
	(pad "7" smd roundrect
		(at -4.445 2.54)
		(size 3.1 1.6)
		(layers "F.Cu" "F.Paste" "F.Mask")
		(roundrect_rratio 0.15625)
	)
	(pad "8" smd roundrect
		(at -4.445 5.08)
		(size 3.1 1.6)
		(layers "F.Cu" "F.Paste" "F.Mask")
		(roundrect_rratio 0.15625)
	)
	(pad "9" smd roundrect
		(at -4.445 7.62)
		(size 3.1 1.6)
		(layers "F.Cu" "F.Paste" "F.Mask")
		(roundrect_rratio 0.15625)
	)
	(pad "10" smd roundrect
		(at -4.445 10.16)
		(size 3.1 1.6)
		(layers "F.Cu" "F.Paste" "F.Mask")
		(roundrect_rratio 0.15625)
	)
	(pad "11" smd roundrect
		(at -4.445 12.7)
		(size 3.1 1.6)
		(layers "F.Cu" "F.Paste" "F.Mask")
		(roundrect_rratio 0.15625)
	)
	(pad "12" smd roundrect
		(at 4.445 12.7)
		(size 3.1 1.6)
		(layers "F.Cu" "F.Paste" "F.Mask")
		(roundrect_rratio 0.15625)
	)
	(pad "13" smd roundrect
		(at 4.445 10.16)
		(size 3.1 1.6)
		(layers "F.Cu" "F.Paste" "F.Mask")
		(roundrect_rratio 0.15625)
	)
	(pad "14" smd roundrect
		(at 4.445 7.62)
		(size 3.1 1.6)
		(layers "F.Cu" "F.Paste" "F.Mask")
		(roundrect_rratio 0.15625)
	)
	(pad "15" smd roundrect
		(at 4.445 5.08)
		(size 3.1 1.6)
		(layers "F.Cu" "F.Paste" "F.Mask")
		(roundrect_rratio 0.15625)
	)
	(pad "16" smd roundrect
		(at 4.445 2.54)
		(size 3.1 1.6)
		(layers "F.Cu" "F.Paste" "F.Mask")
		(roundrect_rratio 0.15625)
	)
	(pad "17" smd roundrect
		(at 4.445 0)
		(size 3.1 1.6)
		(layers "F.Cu" "F.Paste" "F.Mask")
		(roundrect_rratio 0.15625)
	)
	(pad "18" smd roundrect
		(at 4.445 -2.54)
		(size 3.1 1.6)
		(layers "F.Cu" "F.Paste" "F.Mask")
		(roundrect_rratio 0.15625)
	)
	(pad "19" smd roundrect
		(at 4.445 -5.08)
		(size 3.1 1.6)
		(layers "F.Cu" "F.Paste" "F.Mask")
		(roundrect_rratio 0.15625)
	)
	(pad "20" smd roundrect
		(at 4.445 -7.62)
		(size 3.1 1.6)
		(layers "F.Cu" "F.Paste" "F.Mask")
		(roundrect_rratio 0.15625)
	)
	(pad "21" smd roundrect
		(at 4.445 -10.16)
		(size 3.1 1.6)
		(layers "F.Cu" "F.Paste" "F.Mask")
		(roundrect_rratio 0.15625)
	)
	(pad "22" smd roundrect
		(at 4.445 -12.7)
		(size 3.1 1.6)
		(layers "F.Cu" "F.Paste" "F.Mask")
		(roundrect_rratio 0.15625)
	)
	(model "${KICAD8_3DMODEL_DIR}/Package_DIP.3dshapes/DIP-22_W8.89mm_SMDSocket_LongPads.wrl"
		(offset
			(xyz 0 0 0)
		)
		(scale
			(xyz 1 1 1)
		)
		(rotate
			(xyz 0 0 0)
		)
	)
)
