(footprint "DIP-14_W7.62mm_SMDSocket_SmallPads"
	(version 20240108)
	(generator "kicad-footprint-generator")
	(layer "F.Cu")
	(descr "14-lead though-hole mounted DIP package, row spacing 7.62mm (300 mils), SMDSocket, SmallPads")
	(tags "THT DIP DIL PDIP 2.54mm 7.62mm 300mil SMDSocket SmallPads")
	(property "Reference" "REF**"
		(at 0 -9.95 0)
		(layer "F.SilkS")
		(effects
			(font
				(size 1 1)
				(thickness 0.15)
			)
		)
	)
	(property "Value" "DIP-14_W7.62mm_SMDSocket_SmallPads"
		(at 0 9.95 0)
		(layer "F.Fab")
		(effects
			(font
				(size 1 1)
				(thickness 0.15)
			)
		)
	)
	(attr smd)
	(fp_line
		(start -2.65 -8.95)
		(end -2.65 8.95)
		(stroke
			(width 0.12)
			(type solid)
		)
		(layer "F.SilkS")
	)
	(fp_line
		(start -2.65 8.95)
		(end 2.65 8.95)
		(stroke
			(width 0.12)
			(type solid)
		)
		(layer "F.SilkS")
	)
	(fp_line
		(start -1 -8.95)
		(end -2.65 -8.95)
		(stroke
			(width 0.12)
			(type solid)
		)
		(layer "F.SilkS")
	)
	(fp_line
		(start 2.65 -8.95)
		(end 1 -8.95)
		(stroke
			(width 0.12)
			(type solid)
		)
		(layer "F.SilkS")
	)
	(fp_line
		(start 2.65 8.95)
		(end 2.65 -8.95)
		(stroke
			(width 0.12)
			(type solid)
		)
		(layer "F.SilkS")
	)
	(fp_rect
		(start -5.14 -9.01)
		(end 5.14 9.01)
		(stroke
			(width 0.12)
			(type solid)
		)
		(fill none)
		(layer "F.SilkS")
	)
	(fp_arc
		(start 1 -8.95)
		(mid 0 -7.95)
		(end -1 -8.95)
		(stroke
			(width 0.12)
			(type solid)
		)
		(layer "F.SilkS")
	)
	(fp_rect
		(start -5.33 -9.21)
		(end 5.33 9.21)
		(stroke
			(width 0.05)
			(type solid)
		)
		(fill none)
		(layer "F.CrtYd")
	)
	(fp_line
		(start -3.175 -7.89)
		(end -2.175 -8.89)
		(stroke
			(width 0.1)
			(type solid)
		)
		(layer "F.Fab")
	)
	(fp_line
		(start -3.175 8.89)
		(end -3.175 -7.89)
		(stroke
			(width 0.1)
			(type solid)
		)
		(layer "F.Fab")
	)
	(fp_line
		(start -2.175 -8.89)
		(end 3.175 -8.89)
		(stroke
			(width 0.1)
			(type solid)
		)
		(layer "F.Fab")
	)
	(fp_line
		(start 3.175 -8.89)
		(end 3.175 8.89)
		(stroke
			(width 0.1)
			(type solid)
		)
		(layer "F.Fab")
	)
	(fp_line
		(start 3.175 8.89)
		(end -3.175 8.89)
		(stroke
			(width 0.1)
			(type solid)
		)
		(layer "F.Fab")
	)
	(fp_rect
		(start -5.08 -8.95)
		(end 5.08 8.95)
		(stroke
			(width 0.1)
			(type solid)
		)
		(fill none)
		(layer "F.Fab")
	)
	(fp_text user "${REFERENCE}"
		(at 0 0 90)
		(layer "F.Fab")
		(effects
			(font
				(size 1 1)
				(thickness 0.15)
			)
		)
	)
	(pad "1" smd roundrect
		(at -3.81 -7.62)
		(size 1.6 1.6)
		(layers "F.Cu" "F.Paste" "F.Mask")
		(roundrect_rratio 0.15625)
	)
	(pad "2" smd roundrect
		(at -3.81 -5.08)
		(size 1.6 1.6)
		(layers "F.Cu" "F.Paste" "F.Mask")
		(roundrect_rratio 0.15625)
	)
	(pad "3" smd roundrect
		(at -3.81 -2.54)
		(size 1.6 1.6)
		(layers "F.Cu" "F.Paste" "F.Mask")
		(roundrect_rratio 0.15625)
	)
	(pad "4" smd roundrect
		(at -3.81 0)
		(size 1.6 1.6)
		(layers "F.Cu" "F.Paste" "F.Mask")
		(roundrect_rratio 0.15625)
	)
	(pad "5" smd roundrect
		(at -3.81 2.54)
		(size 1.6 1.6)
		(layers "F.Cu" "F.Paste" "F.Mask")
		(roundrect_rratio 0.15625)
	)
	(pad "6" smd roundrect
		(at -3.81 5.08)
		(size 1.6 1.6)
		(layers "F.Cu" "F.Paste" "F.Mask")
		(roundrect_rratio 0.15625)
	)
	(pad "7" smd roundrect
		(at -3.81 7.62)
		(size 1.6 1.6)
		(layers "F.Cu" "F.Paste" "F.Mask")
		(roundrect_rratio 0.15625)
	)
	(pad "8" smd roundrect
		(at 3.81 7.62)
		(size 1.6 1.6)
		(layers "F.Cu" "F.Paste" "F.Mask")
		(roundrect_rratio 0.15625)
	)
	(pad "9" smd roundrect
		(at 3.81 5.08)
		(size 1.6 1.6)
		(layers "F.Cu" "F.Paste" "F.Mask")
		(roundrect_rratio 0.15625)
	)
	(pad "10" smd roundrect
		(at 3.81 2.54)
		(size 1.6 1.6)
		(layers "F.Cu" "F.Paste" "F.Mask")
		(roundrect_rratio 0.15625)
	)
	(pad "11" smd roundrect
		(at 3.81 0)
		(size 1.6 1.6)
		(layers "F.Cu" "F.Paste" "F.Mask")
		(roundrect_rratio 0.15625)
	)
	(pad "12" smd roundrect
		(at 3.81 -2.54)
		(size 1.6 1.6)
		(layers "F.Cu" "F.Paste" "F.Mask")
		(roundrect_rratio 0.15625)
	)
	(pad "13" smd roundrect
		(at 3.81 -5.08)
		(size 1.6 1.6)
		(layers "F.Cu" "F.Paste" "F.Mask")
		(roundrect_rratio 0.15625)
	)
	(pad "14" smd roundrect
		(at 3.81 -7.62)
		(size 1.6 1.6)
		(layers "F.Cu" "F.Paste" "F.Mask")
		(roundrect_rratio 0.15625)
	)
	(model "${KICAD8_3DMODEL_DIR}/Package_DIP.3dshapes/DIP-14_W7.62mm_SMDSocket_SmallPads.wrl"
		(offset
			(xyz 0 0 0)
		)
		(scale
			(xyz 1 1 1)
		)
		(rotate
			(xyz 0 0 0)
		)
	)
)
