(footprint "SMDIP-32_W7.62mm"
	(version 20240108)
	(generator "kicad-footprint-generator")
	(layer "F.Cu")
	(descr "32-lead surface-mounted (SMD) DIP package, row spacing 7.62mm (300 mils)")
	(tags "SMD DIP DIL PDIP SMDIP 2.54mm 7.62mm 300mil")
	(property "Reference" "REF**"
		(at 0 -21.38 0)
		(layer "F.SilkS")
		(effects
			(font
				(size 1 1)
				(thickness 0.15)
			)
		)
	)
	(property "Value" "SMDIP-32_W7.62mm"
		(at 0 21.38 0)
		(layer "F.Fab")
		(effects
			(font
				(size 1 1)
				(thickness 0.15)
			)
		)
	)
	(attr smd)
	(fp_line
		(start -2.45 -20.38)
		(end -2.45 20.38)
		(stroke
			(width 0.12)
			(type solid)
		)
		(layer "F.SilkS")
	)
	(fp_line
		(start -2.45 20.38)
		(end 2.45 20.38)
		(stroke
			(width 0.12)
			(type solid)
		)
		(layer "F.SilkS")
	)
	(fp_line
		(start -1 -20.38)
		(end -2.45 -20.38)
		(stroke
			(width 0.12)
			(type solid)
		)
		(layer "F.SilkS")
	)
	(fp_line
		(start 2.45 -20.38)
		(end 1 -20.38)
		(stroke
			(width 0.12)
			(type solid)
		)
		(layer "F.SilkS")
	)
	(fp_line
		(start 2.45 20.38)
		(end 2.45 -20.38)
		(stroke
			(width 0.12)
			(type solid)
		)
		(layer "F.SilkS")
	)
	(fp_arc
		(start 1 -20.38)
		(mid 0 -19.38)
		(end -1 -20.38)
		(stroke
			(width 0.12)
			(type solid)
		)
		(layer "F.SilkS")
	)
	(fp_rect
		(start -5.07 -20.58)
		(end 5.07 20.58)
		(stroke
			(width 0.05)
			(type solid)
		)
		(fill none)
		(layer "F.CrtYd")
	)
	(fp_line
		(start -3.175 -19.32)
		(end -2.175 -20.32)
		(stroke
			(width 0.1)
			(type solid)
		)
		(layer "F.Fab")
	)
	(fp_line
		(start -3.175 20.32)
		(end -3.175 -19.32)
		(stroke
			(width 0.1)
			(type solid)
		)
		(layer "F.Fab")
	)
	(fp_line
		(start -2.175 -20.32)
		(end 3.175 -20.32)
		(stroke
			(width 0.1)
			(type solid)
		)
		(layer "F.Fab")
	)
	(fp_line
		(start 3.175 -20.32)
		(end 3.175 20.32)
		(stroke
			(width 0.1)
			(type solid)
		)
		(layer "F.Fab")
	)
	(fp_line
		(start 3.175 20.32)
		(end -3.175 20.32)
		(stroke
			(width 0.1)
			(type solid)
		)
		(layer "F.Fab")
	)
	(fp_text user "${REFERENCE}"
		(at 0 0 90)
		(layer "F.Fab")
		(effects
			(font
				(size 1 1)
				(thickness 0.15)
			)
		)
	)
	(pad "1" smd roundrect
		(at -3.81 -19.05)
		(size 2 1.78)
		(layers "F.Cu" "F.Paste" "F.Mask")
		(roundrect_rratio 0.140449)
	)
	(pad "2" smd roundrect
		(at -3.81 -16.51)
		(size 2 1.78)
		(layers "F.Cu" "F.Paste" "F.Mask")
		(roundrect_rratio 0.140449)
	)
	(pad "3" smd roundrect
		(at -3.81 -13.97)
		(size 2 1.78)
		(layers "F.Cu" "F.Paste" "F.Mask")
		(roundrect_rratio 0.140449)
	)
	(pad "4" smd roundrect
		(at -3.81 -11.43)
		(size 2 1.78)
		(layers "F.Cu" "F.Paste" "F.Mask")
		(roundrect_rratio 0.140449)
	)
	(pad "5" smd roundrect
		(at -3.81 -8.89)
		(size 2 1.78)
		(layers "F.Cu" "F.Paste" "F.Mask")
		(roundrect_rratio 0.140449)
	)
	(pad "6" smd roundrect
		(at -3.81 -6.35)
		(size 2 1.78)
		(layers "F.Cu" "F.Paste" "F.Mask")
		(roundrect_rratio 0.140449)
	)
	(pad "7" smd roundrect
		(at -3.81 -3.81)
		(size 2 1.78)
		(layers "F.Cu" "F.Paste" "F.Mask")
		(roundrect_rratio 0.140449)
	)
	(pad "8" smd roundrect
		(at -3.81 -1.27)
		(size 2 1.78)
		(layers "F.Cu" "F.Paste" "F.Mask")
		(roundrect_rratio 0.140449)
	)
	(pad "9" smd roundrect
		(at -3.81 1.27)
		(size 2 1.78)
		(layers "F.Cu" "F.Paste" "F.Mask")
		(roundrect_rratio 0.140449)
	)
	(pad "10" smd roundrect
		(at -3.81 3.81)
		(size 2 1.78)
		(layers "F.Cu" "F.Paste" "F.Mask")
		(roundrect_rratio 0.140449)
	)
	(pad "11" smd roundrect
		(at -3.81 6.35)
		(size 2 1.78)
		(layers "F.Cu" "F.Paste" "F.Mask")
		(roundrect_rratio 0.140449)
	)
	(pad "12" smd roundrect
		(at -3.81 8.89)
		(size 2 1.78)
		(layers "F.Cu" "F.Paste" "F.Mask")
		(roundrect_rratio 0.140449)
	)
	(pad "13" smd roundrect
		(at -3.81 11.43)
		(size 2 1.78)
		(layers "F.Cu" "F.Paste" "F.Mask")
		(roundrect_rratio 0.140449)
	)
	(pad "14" smd roundrect
		(at -3.81 13.97)
		(size 2 1.78)
		(layers "F.Cu" "F.Paste" "F.Mask")
		(roundrect_rratio 0.140449)
	)
	(pad "15" smd roundrect
		(at -3.81 16.51)
		(size 2 1.78)
		(layers "F.Cu" "F.Paste" "F.Mask")
		(roundrect_rratio 0.140449)
	)
	(pad "16" smd roundrect
		(at -3.81 19.05)
		(size 2 1.78)
		(layers "F.Cu" "F.Paste" "F.Mask")
		(roundrect_rratio 0.140449)
	)
	(pad "17" smd roundrect
		(at 3.81 19.05)
		(size 2 1.78)
		(layers "F.Cu" "F.Paste" "F.Mask")
		(roundrect_rratio 0.140449)
	)
	(pad "18" smd roundrect
		(at 3.81 16.51)
		(size 2 1.78)
		(layers "F.Cu" "F.Paste" "F.Mask")
		(roundrect_rratio 0.140449)
	)
	(pad "19" smd roundrect
		(at 3.81 13.97)
		(size 2 1.78)
		(layers "F.Cu" "F.Paste" "F.Mask")
		(roundrect_rratio 0.140449)
	)
	(pad "20" smd roundrect
		(at 3.81 11.43)
		(size 2 1.78)
		(layers "F.Cu" "F.Paste" "F.Mask")
		(roundrect_rratio 0.140449)
	)
	(pad "21" smd roundrect
		(at 3.81 8.89)
		(size 2 1.78)
		(layers "F.Cu" "F.Paste" "F.Mask")
		(roundrect_rratio 0.140449)
	)
	(pad "22" smd roundrect
		(at 3.81 6.35)
		(size 2 1.78)
		(layers "F.Cu" "F.Paste" "F.Mask")
		(roundrect_rratio 0.140449)
	)
	(pad "23" smd roundrect
		(at 3.81 3.81)
		(size 2 1.78)
		(layers "F.Cu" "F.Paste" "F.Mask")
		(roundrect_rratio 0.140449)
	)
	(pad "24" smd roundrect
		(at 3.81 1.27)
		(size 2 1.78)
		(layers "F.Cu" "F.Paste" "F.Mask")
		(roundrect_rratio 0.140449)
	)
	(pad "25" smd roundrect
		(at 3.81 -1.27)
		(size 2 1.78)
		(layers "F.Cu" "F.Paste" "F.Mask")
		(roundrect_rratio 0.140449)
	)
	(pad "26" smd roundrect
		(at 3.81 -3.81)
		(size 2 1.78)
		(layers "F.Cu" "F.Paste" "F.Mask")
		(roundrect_rratio 0.140449)
	)
	(pad "27" smd roundrect
		(at 3.81 -6.35)
		(size 2 1.78)
		(layers "F.Cu" "F.Paste" "F.Mask")
		(roundrect_rratio 0.140449)
	)
	(pad "28" smd roundrect
		(at 3.81 -8.89)
		(size 2 1.78)
		(layers "F.Cu" "F.Paste" "F.Mask")
		(roundrect_rratio 0.140449)
	)
	(pad "29" smd roundrect
		(at 3.81 -11.43)
		(size 2 1.78)
		(layers "F.Cu" "F.Paste" "F.Mask")
		(roundrect_rratio 0.140449)
	)
	(pad "30" smd roundrect
		(at 3.81 -13.97)
		(size 2 1.78)
		(layers "F.Cu" "F.Paste" "F.Mask")
		(roundrect_rratio 0.140449)
	)
	(pad "31" smd roundrect
		(at 3.81 -16.51)
		(size 2 1.78)
		(layers "F.Cu" "F.Paste" "F.Mask")
		(roundrect_rratio 0.140449)
	)
	(pad "32" smd roundrect
		(at 3.81 -19.05)
		(size 2 1.78)
		(layers "F.Cu" "F.Paste" "F.Mask")
		(roundrect_rratio 0.140449)
	)
	(model "${KICAD8_3DMODEL_DIR}/Housings_DIP.3dshapes/SMDIP-32_W7.62mm.wrl"
		(offset
			(xyz 0 0 0)
		)
		(scale
			(xyz 1 1 1)
		)
		(rotate
			(xyz 0 0 0)
		)
	)
)
