(footprint "SMDIP-14_W9.53mm_Clearance8mm"
	(version 20240108)
	(generator "kicad-footprint-generator")
	(layer "F.Cu")
	(descr "14-lead surface-mounted (SMD) DIP package, row spacing 9.53mm (375 mils), Clearance8mm")
	(tags "SMD DIP DIL PDIP SMDIP 2.54mm 9.53mm 375mil Clearance8mm")
	(property "Reference" "REF**"
		(at 0 -9.95 0)
		(layer "F.SilkS")
		(effects
			(font
				(size 1 1)
				(thickness 0.15)
			)
		)
	)
	(property "Value" "SMDIP-14_W9.53mm_Clearance8mm"
		(at 0 9.95 0)
		(layer "F.Fab")
		(effects
			(font
				(size 1 1)
				(thickness 0.15)
			)
		)
	)
	(attr smd)
	(fp_line
		(start -3.235 -8.95)
		(end -3.235 8.95)
		(stroke
			(width 0.12)
			(type solid)
		)
		(layer "F.SilkS")
	)
	(fp_line
		(start -3.235 8.95)
		(end 3.235 8.95)
		(stroke
			(width 0.12)
			(type solid)
		)
		(layer "F.SilkS")
	)
	(fp_line
		(start -1 -8.95)
		(end -3.235 -8.95)
		(stroke
			(width 0.12)
			(type solid)
		)
		(layer "F.SilkS")
	)
	(fp_line
		(start 3.235 -8.95)
		(end 1 -8.95)
		(stroke
			(width 0.12)
			(type solid)
		)
		(layer "F.SilkS")
	)
	(fp_line
		(start 3.235 8.95)
		(end 3.235 -8.95)
		(stroke
			(width 0.12)
			(type solid)
		)
		(layer "F.SilkS")
	)
	(fp_arc
		(start 1 -8.95)
		(mid 0 -7.95)
		(end -1 -8.95)
		(stroke
			(width 0.12)
			(type solid)
		)
		(layer "F.SilkS")
	)
	(fp_rect
		(start -5.77 -9.14)
		(end 5.77 9.14)
		(stroke
			(width 0.05)
			(type solid)
		)
		(fill none)
		(layer "F.CrtYd")
	)
	(fp_line
		(start -3.175 -7.89)
		(end -2.175 -8.89)
		(stroke
			(width 0.1)
			(type solid)
		)
		(layer "F.Fab")
	)
	(fp_line
		(start -3.175 8.89)
		(end -3.175 -7.89)
		(stroke
			(width 0.1)
			(type solid)
		)
		(layer "F.Fab")
	)
	(fp_line
		(start -2.175 -8.89)
		(end 3.175 -8.89)
		(stroke
			(width 0.1)
			(type solid)
		)
		(layer "F.Fab")
	)
	(fp_line
		(start 3.175 -8.89)
		(end 3.175 8.89)
		(stroke
			(width 0.1)
			(type solid)
		)
		(layer "F.Fab")
	)
	(fp_line
		(start 3.175 8.89)
		(end -3.175 8.89)
		(stroke
			(width 0.1)
			(type solid)
		)
		(layer "F.Fab")
	)
	(fp_text user "${REFERENCE}"
		(at 0 0 90)
		(layer "F.Fab")
		(effects
			(font
				(size 1 1)
				(thickness 0.15)
			)
		)
	)
	(pad "1" smd roundrect
		(at -4.765 -7.62)
		(size 1.5 1.78)
		(layers "F.Cu" "F.Paste" "F.Mask")
		(roundrect_rratio 0.166667)
	)
	(pad "2" smd roundrect
		(at -4.765 -5.08)
		(size 1.5 1.78)
		(layers "F.Cu" "F.Paste" "F.Mask")
		(roundrect_rratio 0.166667)
	)
	(pad "3" smd roundrect
		(at -4.765 -2.54)
		(size 1.5 1.78)
		(layers "F.Cu" "F.Paste" "F.Mask")
		(roundrect_rratio 0.166667)
	)
	(pad "4" smd roundrect
		(at -4.765 0)
		(size 1.5 1.78)
		(layers "F.Cu" "F.Paste" "F.Mask")
		(roundrect_rratio 0.166667)
	)
	(pad "5" smd roundrect
		(at -4.765 2.54)
		(size 1.5 1.78)
		(layers "F.Cu" "F.Paste" "F.Mask")
		(roundrect_rratio 0.166667)
	)
	(pad "6" smd roundrect
		(at -4.765 5.08)
		(size 1.5 1.78)
		(layers "F.Cu" "F.Paste" "F.Mask")
		(roundrect_rratio 0.166667)
	)
	(pad "7" smd roundrect
		(at -4.765 7.62)
		(size 1.5 1.78)
		(layers "F.Cu" "F.Paste" "F.Mask")
		(roundrect_rratio 0.166667)
	)
	(pad "8" smd roundrect
		(at 4.765 7.62)
		(size 1.5 1.78)
		(layers "F.Cu" "F.Paste" "F.Mask")
		(roundrect_rratio 0.166667)
	)
	(pad "9" smd roundrect
		(at 4.765 5.08)
		(size 1.5 1.78)
		(layers "F.Cu" "F.Paste" "F.Mask")
		(roundrect_rratio 0.166667)
	)
	(pad "10" smd roundrect
		(at 4.765 2.54)
		(size 1.5 1.78)
		(layers "F.Cu" "F.Paste" "F.Mask")
		(roundrect_rratio 0.166667)
	)
	(pad "11" smd roundrect
		(at 4.765 0)
		(size 1.5 1.78)
		(layers "F.Cu" "F.Paste" "F.Mask")
		(roundrect_rratio 0.166667)
	)
	(pad "12" smd roundrect
		(at 4.765 -2.54)
		(size 1.5 1.78)
		(layers "F.Cu" "F.Paste" "F.Mask")
		(roundrect_rratio 0.166667)
	)
	(pad "13" smd roundrect
		(at 4.765 -5.08)
		(size 1.5 1.78)
		(layers "F.Cu" "F.Paste" "F.Mask")
		(roundrect_rratio 0.166667)
	)
	(pad "14" smd roundrect
		(at 4.765 -7.62)
		(size 1.5 1.78)
		(layers "F.Cu" "F.Paste" "F.Mask")
		(roundrect_rratio 0.166667)
	)
	(model "${KICAD8_3DMODEL_DIR}/Housings_DIP.3dshapes/SMDIP-14_W9.53mm_Clearance8mm.wrl"
		(offset
			(xyz 0 0 0)
		)
		(scale
			(xyz 1 1 1)
		)
		(rotate
			(xyz 0 0 0)
		)
	)
)
