(footprint "SMDIP-22_W7.62mm"
	(version 20240108)
	(generator "kicad-footprint-generator")
	(layer "F.Cu")
	(descr "22-lead surface-mounted (SMD) DIP package, row spacing 7.62mm (300 mils)")
	(tags "SMD DIP DIL PDIP SMDIP 2.54mm 7.62mm 300mil")
	(property "Reference" "REF**"
		(at 0 -15.03 0)
		(layer "F.SilkS")
		(effects
			(font
				(size 1 1)
				(thickness 0.15)
			)
		)
	)
	(property "Value" "SMDIP-22_W7.62mm"
		(at 0 15.03 0)
		(layer "F.Fab")
		(effects
			(font
				(size 1 1)
				(thickness 0.15)
			)
		)
	)
	(attr smd)
	(fp_line
		(start -2.45 -14.03)
		(end -2.45 14.03)
		(stroke
			(width 0.12)
			(type solid)
		)
		(layer "F.SilkS")
	)
	(fp_line
		(start -2.45 14.03)
		(end 2.45 14.03)
		(stroke
			(width 0.12)
			(type solid)
		)
		(layer "F.SilkS")
	)
	(fp_line
		(start -1 -14.03)
		(end -2.45 -14.03)
		(stroke
			(width 0.12)
			(type solid)
		)
		(layer "F.SilkS")
	)
	(fp_line
		(start 2.45 -14.03)
		(end 1 -14.03)
		(stroke
			(width 0.12)
			(type solid)
		)
		(layer "F.SilkS")
	)
	(fp_line
		(start 2.45 14.03)
		(end 2.45 -14.03)
		(stroke
			(width 0.12)
			(type solid)
		)
		(layer "F.SilkS")
	)
	(fp_arc
		(start 1 -14.03)
		(mid 0 -13.03)
		(end -1 -14.03)
		(stroke
			(width 0.12)
			(type solid)
		)
		(layer "F.SilkS")
	)
	(fp_rect
		(start -5.07 -14.22)
		(end 5.07 14.22)
		(stroke
			(width 0.05)
			(type solid)
		)
		(fill none)
		(layer "F.CrtYd")
	)
	(fp_line
		(start -3.175 -12.97)
		(end -2.175 -13.97)
		(stroke
			(width 0.1)
			(type solid)
		)
		(layer "F.Fab")
	)
	(fp_line
		(start -3.175 13.97)
		(end -3.175 -12.97)
		(stroke
			(width 0.1)
			(type solid)
		)
		(layer "F.Fab")
	)
	(fp_line
		(start -2.175 -13.97)
		(end 3.175 -13.97)
		(stroke
			(width 0.1)
			(type solid)
		)
		(layer "F.Fab")
	)
	(fp_line
		(start 3.175 -13.97)
		(end 3.175 13.97)
		(stroke
			(width 0.1)
			(type solid)
		)
		(layer "F.Fab")
	)
	(fp_line
		(start 3.175 13.97)
		(end -3.175 13.97)
		(stroke
			(width 0.1)
			(type solid)
		)
		(layer "F.Fab")
	)
	(fp_text user "${REFERENCE}"
		(at 0 0 90)
		(layer "F.Fab")
		(effects
			(font
				(size 1 1)
				(thickness 0.15)
			)
		)
	)
	(pad "1" smd roundrect
		(at -3.81 -12.7)
		(size 2 1.78)
		(layers "F.Cu" "F.Paste" "F.Mask")
		(roundrect_rratio 0.140449)
	)
	(pad "2" smd roundrect
		(at -3.81 -10.16)
		(size 2 1.78)
		(layers "F.Cu" "F.Paste" "F.Mask")
		(roundrect_rratio 0.140449)
	)
	(pad "3" smd roundrect
		(at -3.81 -7.62)
		(size 2 1.78)
		(layers "F.Cu" "F.Paste" "F.Mask")
		(roundrect_rratio 0.140449)
	)
	(pad "4" smd roundrect
		(at -3.81 -5.08)
		(size 2 1.78)
		(layers "F.Cu" "F.Paste" "F.Mask")
		(roundrect_rratio 0.140449)
	)
	(pad "5" smd roundrect
		(at -3.81 -2.54)
		(size 2 1.78)
		(layers "F.Cu" "F.Paste" "F.Mask")
		(roundrect_rratio 0.140449)
	)
	(pad "6" smd roundrect
		(at -3.81 0)
		(size 2 1.78)
		(layers "F.Cu" "F.Paste" "F.Mask")
		(roundrect_rratio 0.140449)
	)
	(pad "7" smd roundrect
		(at -3.81 2.54)
		(size 2 1.78)
		(layers "F.Cu" "F.Paste" "F.Mask")
		(roundrect_rratio 0.140449)
	)
	(pad "8" smd roundrect
		(at -3.81 5.08)
		(size 2 1.78)
		(layers "F.Cu" "F.Paste" "F.Mask")
		(roundrect_rratio 0.140449)
	)
	(pad "9" smd roundrect
		(at -3.81 7.62)
		(size 2 1.78)
		(layers "F.Cu" "F.Paste" "F.Mask")
		(roundrect_rratio 0.140449)
	)
	(pad "10" smd roundrect
		(at -3.81 10.16)
		(size 2 1.78)
		(layers "F.Cu" "F.Paste" "F.Mask")
		(roundrect_rratio 0.140449)
	)
	(pad "11" smd roundrect
		(at -3.81 12.7)
		(size 2 1.78)
		(layers "F.Cu" "F.Paste" "F.Mask")
		(roundrect_rratio 0.140449)
	)
	(pad "12" smd roundrect
		(at 3.81 12.7)
		(size 2 1.78)
		(layers "F.Cu" "F.Paste" "F.Mask")
		(roundrect_rratio 0.140449)
	)
	(pad "13" smd roundrect
		(at 3.81 10.16)
		(size 2 1.78)
		(layers "F.Cu" "F.Paste" "F.Mask")
		(roundrect_rratio 0.140449)
	)
	(pad "14" smd roundrect
		(at 3.81 7.62)
		(size 2 1.78)
		(layers "F.Cu" "F.Paste" "F.Mask")
		(roundrect_rratio 0.140449)
	)
	(pad "15" smd roundrect
		(at 3.81 5.08)
		(size 2 1.78)
		(layers "F.Cu" "F.Paste" "F.Mask")
		(roundrect_rratio 0.140449)
	)
	(pad "16" smd roundrect
		(at 3.81 2.54)
		(size 2 1.78)
		(layers "F.Cu" "F.Paste" "F.Mask")
		(roundrect_rratio 0.140449)
	)
	(pad "17" smd roundrect
		(at 3.81 0)
		(size 2 1.78)
		(layers "F.Cu" "F.Paste" "F.Mask")
		(roundrect_rratio 0.140449)
	)
	(pad "18" smd roundrect
		(at 3.81 -2.54)
		(size 2 1.78)
		(layers "F.Cu" "F.Paste" "F.Mask")
		(roundrect_rratio 0.140449)
	)
	(pad "19" smd roundrect
		(at 3.81 -5.08)
		(size 2 1.78)
		(layers "F.Cu" "F.Paste" "F.Mask")
		(roundrect_rratio 0.140449)
	)
	(pad "20" smd roundrect
		(at 3.81 -7.62)
		(size 2 1.78)
		(layers "F.Cu" "F.Paste" "F.Mask")
		(roundrect_rratio 0.140449)
	)
	(pad "21" smd roundrect
		(at 3.81 -10.16)
		(size 2 1.78)
		(layers "F.Cu" "F.Paste" "F.Mask")
		(roundrect_rratio 0.140449)
	)
	(pad "22" smd roundrect
		(at 3.81 -12.7)
		(size 2 1.78)
		(layers "F.Cu" "F.Paste" "F.Mask")
		(roundrect_rratio 0.140449)
	)
	(model "${KICAD8_3DMODEL_DIR}/Housings_DIP.3dshapes/SMDIP-22_W7.62mm.wrl"
		(offset
			(xyz 0 0 0)
		)
		(scale
			(xyz 1 1 1)
		)
		(rotate
			(xyz 0 0 0)
		)
	)
)
